<svg width="64" height="64" viewBox="0 0 64 64" fill="none" xmlns="http://www.w3.org/2000/svg">
<g clip-path="url(#clip0)">
<path d="M50.5922 2.29111L32.0002 20.8841C25.8032 14.6891 19.6042 8.48811 13.4062 2.29111C6.23623 -4.87889 -4.87777 6.23911 2.28623 13.4111C8.48523 19.6041 14.6862 25.8061 20.8782 32.0031C14.6834 38.2029 8.48606 44.4003 2.28623 50.5951C-4.87777 57.7631 6.23723 68.8781 13.4062 61.7151C19.6032 55.5161 25.8022 49.3161 31.9992 43.1211L50.5912 61.7151C57.7612 68.8831 68.8782 57.7641 61.7112 50.5951C55.5122 44.3961 49.3152 38.1991 43.1142 32.0011C49.3142 25.8021 55.5112 19.6031 61.7112 13.4051C68.8792 6.23911 57.7622 -4.87889 50.5912 2.29511" fill="#EC1C24"/>
</g>
<defs>
<clipPath id="clip0">
<rect width="64" height="64" fill="white"/>
</clipPath>
</defs>
</svg>
