<svg width="364" height="409" viewBox="0 0 364 409" fill="none" xmlns="http://www.w3.org/2000/svg">
<line x1="185" y1="207" x2="185" y2="312" stroke="#C1CBE1" stroke-width="6" stroke-linecap="round" stroke-linejoin="round"/>
<line x1="184.5" y1="196.5" x2="184.5" y2="61.5" stroke="#D8D8D8" stroke-width="5" stroke-linecap="round" stroke-linejoin="round" stroke-dasharray="10 12"/>
<path d="M227.278 191.4H232.732C233.956 191.4 234.94 191.706 235.684 192.318C236.44 192.918 236.818 193.722 236.818 194.73C236.818 195.33 236.662 195.87 236.35 196.35C236.038 196.818 235.612 197.184 235.072 197.448C235.756 197.712 236.296 198.102 236.692 198.618C237.1 199.134 237.304 199.734 237.304 200.418C237.304 201.498 236.908 202.368 236.116 203.028C235.324 203.676 234.274 204 232.966 204H227.278V191.4ZM232.624 193.002H229.168V196.746H232.624C233.332 196.746 233.896 196.578 234.316 196.242C234.736 195.906 234.946 195.45 234.946 194.874C234.946 194.298 234.736 193.842 234.316 193.506C233.896 193.17 233.332 193.002 232.624 193.002ZM232.822 202.398C233.602 202.398 234.226 202.212 234.694 201.84C235.162 201.456 235.396 200.952 235.396 200.328C235.396 199.716 235.162 199.218 234.694 198.834C234.226 198.45 233.602 198.258 232.822 198.258H229.168V202.398H232.822ZM238.544 199.41C238.544 198.75 238.664 198.132 238.904 197.556C239.156 196.968 239.498 196.464 239.93 196.044C240.362 195.612 240.866 195.276 241.442 195.036C242.03 194.784 242.654 194.658 243.314 194.658C243.974 194.658 244.592 194.784 245.168 195.036C245.756 195.276 246.26 195.612 246.68 196.044C247.112 196.464 247.448 196.968 247.688 197.556C247.94 198.132 248.066 198.75 248.066 199.41C248.066 200.082 247.94 200.712 247.688 201.3C247.448 201.876 247.112 202.38 246.68 202.812C246.26 203.232 245.756 203.568 245.168 203.82C244.592 204.06 243.974 204.18 243.314 204.18C242.654 204.18 242.03 204.06 241.442 203.82C240.866 203.568 240.362 203.232 239.93 202.812C239.498 202.38 239.156 201.876 238.904 201.3C238.664 200.712 238.544 200.082 238.544 199.41ZM243.314 202.596C244.142 202.596 244.844 202.29 245.42 201.678C246.008 201.054 246.302 200.298 246.302 199.41C246.302 198.522 246.008 197.772 245.42 197.16C244.844 196.548 244.142 196.242 243.314 196.242C242.486 196.242 241.778 196.548 241.19 197.16C240.602 197.772 240.308 198.522 240.308 199.41C240.308 200.298 240.596 201.054 241.172 201.678C241.76 202.29 242.474 202.596 243.314 202.596ZM250.214 201.732V196.35H248.27V194.838H250.214V192.498L251.996 192.066V194.838H254.696V196.35H251.996V201.318C251.996 201.786 252.098 202.116 252.302 202.308C252.518 202.5 252.866 202.596 253.346 202.596C253.598 202.596 253.82 202.584 254.012 202.56C254.216 202.524 254.432 202.464 254.66 202.38V203.892C254.42 203.976 254.138 204.042 253.814 204.09C253.502 204.138 253.214 204.162 252.95 204.162C252.062 204.162 251.384 203.958 250.916 203.55C250.448 203.13 250.214 202.524 250.214 201.732ZM255.842 204V191.4L257.642 191.004V195.756C258.002 195.396 258.41 195.126 258.866 194.946C259.334 194.754 259.844 194.658 260.396 194.658C261.44 194.658 262.298 194.994 262.97 195.666C263.642 196.326 263.978 197.184 263.978 198.24V204H262.178V198.546C262.178 197.826 261.968 197.262 261.548 196.854C261.14 196.434 260.594 196.224 259.91 196.224C259.43 196.224 258.992 196.326 258.596 196.53C258.212 196.734 257.894 197.028 257.642 197.412V204H255.842ZM231.436 222.578C231.892 222.578 232.324 222.488 232.732 222.308C233.14 222.116 233.53 221.834 233.902 221.462L234.982 222.632C234.502 223.112 233.95 223.49 233.326 223.766C232.702 224.03 232.048 224.162 231.364 224.162C230.704 224.162 230.086 224.042 229.51 223.802C228.934 223.55 228.436 223.214 228.016 222.794C227.596 222.374 227.26 221.876 227.008 221.3C226.768 220.712 226.648 220.082 226.648 219.41C226.648 218.75 226.768 218.132 227.008 217.556C227.26 216.968 227.596 216.464 228.016 216.044C228.436 215.612 228.934 215.276 229.51 215.036C230.086 214.784 230.704 214.658 231.364 214.658C232.048 214.658 232.714 214.796 233.362 215.072C234.01 215.336 234.574 215.708 235.054 216.188L233.92 217.412C233.572 217.04 233.182 216.758 232.75 216.566C232.318 216.362 231.868 216.26 231.4 216.26C230.572 216.26 229.87 216.566 229.294 217.178C228.718 217.79 228.43 218.534 228.43 219.41C228.43 220.31 228.718 221.066 229.294 221.678C229.882 222.278 230.596 222.578 231.436 222.578ZM235.503 219.41C235.503 218.75 235.623 218.132 235.863 217.556C236.115 216.968 236.457 216.464 236.889 216.044C237.321 215.612 237.825 215.276 238.401 215.036C238.989 214.784 239.613 214.658 240.273 214.658C240.933 214.658 241.551 214.784 242.127 215.036C242.715 215.276 243.219 215.612 243.639 216.044C244.071 216.464 244.407 216.968 244.647 217.556C244.899 218.132 245.025 218.75 245.025 219.41C245.025 220.082 244.899 220.712 244.647 221.3C244.407 221.876 244.071 222.38 243.639 222.812C243.219 223.232 242.715 223.568 242.127 223.82C241.551 224.06 240.933 224.18 240.273 224.18C239.613 224.18 238.989 224.06 238.401 223.82C237.825 223.568 237.321 223.232 236.889 222.812C236.457 222.38 236.115 221.876 235.863 221.3C235.623 220.712 235.503 220.082 235.503 219.41ZM240.273 222.596C241.101 222.596 241.803 222.29 242.379 221.678C242.967 221.054 243.261 220.298 243.261 219.41C243.261 218.522 242.967 217.772 242.379 217.16C241.803 216.548 241.101 216.242 240.273 216.242C239.445 216.242 238.737 216.548 238.149 217.16C237.561 217.772 237.267 218.522 237.267 219.41C237.267 220.298 237.555 221.054 238.131 221.678C238.719 222.29 239.433 222.596 240.273 222.596ZM246.548 224V214.838H248.348V215.702C248.684 215.366 249.068 215.108 249.5 214.928C249.932 214.748 250.406 214.658 250.922 214.658C251.534 214.658 252.086 214.796 252.578 215.072C253.07 215.336 253.46 215.708 253.748 216.188C254.12 215.684 254.564 215.306 255.08 215.054C255.608 214.79 256.196 214.658 256.844 214.658C257.852 214.658 258.674 214.994 259.31 215.666C259.958 216.326 260.282 217.184 260.282 218.24V224H258.482V218.546C258.482 217.826 258.29 217.262 257.906 216.854C257.534 216.434 257.024 216.224 256.376 216.224C255.932 216.224 255.53 216.326 255.17 216.53C254.81 216.734 254.498 217.04 254.234 217.448C254.258 217.568 254.276 217.7 254.288 217.844C254.3 217.976 254.306 218.108 254.306 218.24V224H252.524V218.546C252.524 217.826 252.332 217.262 251.948 216.854C251.576 216.434 251.066 216.224 250.418 216.224C249.986 216.224 249.596 216.32 249.248 216.512C248.9 216.692 248.6 216.968 248.348 217.34V224H246.548ZM262.17 227.726V214.838H263.952V215.72C264.324 215.384 264.75 215.132 265.23 214.964C265.71 214.784 266.22 214.694 266.76 214.694C267.408 214.694 268.014 214.82 268.578 215.072C269.142 215.312 269.628 215.642 270.036 216.062C270.456 216.482 270.786 216.98 271.026 217.556C271.266 218.132 271.386 218.75 271.386 219.41C271.386 220.07 271.266 220.694 271.026 221.282C270.786 221.858 270.456 222.356 270.036 222.776C269.628 223.196 269.136 223.532 268.56 223.784C267.984 224.024 267.372 224.144 266.724 224.144C266.22 224.144 265.728 224.066 265.248 223.91C264.78 223.754 264.354 223.532 263.97 223.244V227.726H262.17ZM266.526 216.26C266.01 216.26 265.53 216.356 265.086 216.548C264.642 216.74 264.27 217.01 263.97 217.358V221.498C264.258 221.834 264.624 222.098 265.068 222.29C265.524 222.482 266.01 222.578 266.526 222.578C267.402 222.578 268.134 222.278 268.722 221.678C269.322 221.078 269.622 220.328 269.622 219.428C269.622 218.528 269.322 217.778 268.722 217.178C268.122 216.566 267.39 216.26 266.526 216.26ZM280.897 222.956C280.369 223.364 279.817 223.67 279.241 223.874C278.665 224.066 278.035 224.162 277.351 224.162C276.679 224.162 276.049 224.042 275.461 223.802C274.873 223.55 274.363 223.214 273.931 222.794C273.499 222.374 273.157 221.876 272.905 221.3C272.665 220.712 272.545 220.082 272.545 219.41C272.545 218.75 272.665 218.132 272.905 217.556C273.145 216.98 273.469 216.482 273.877 216.062C274.285 215.642 274.771 215.312 275.335 215.072C275.899 214.82 276.499 214.694 277.135 214.694C277.759 214.694 278.341 214.82 278.881 215.072C279.433 215.312 279.901 215.648 280.285 216.08C280.681 216.5 280.993 217.004 281.221 217.592C281.449 218.18 281.563 218.81 281.563 219.482V220.004H274.327C274.447 220.76 274.795 221.39 275.371 221.894C275.947 222.386 276.631 222.632 277.423 222.632C277.867 222.632 278.293 222.56 278.701 222.416C279.109 222.272 279.457 222.074 279.745 221.822L280.897 222.956ZM277.099 216.206C276.415 216.206 275.815 216.434 275.299 216.89C274.795 217.346 274.477 217.934 274.345 218.654H279.781C279.649 217.958 279.331 217.376 278.827 216.908C278.335 216.44 277.759 216.206 277.099 216.206ZM283.934 221.732V216.35H281.99V214.838H283.934V212.498L285.716 212.066V214.838H288.416V216.35H285.716V221.318C285.716 221.786 285.818 222.116 286.022 222.308C286.238 222.5 286.586 222.596 287.066 222.596C287.318 222.596 287.54 222.584 287.732 222.56C287.936 222.524 288.152 222.464 288.38 222.38V223.892C288.14 223.976 287.858 224.042 287.534 224.09C287.222 224.138 286.934 224.162 286.67 224.162C285.782 224.162 285.104 223.958 284.636 223.55C284.168 223.13 283.934 222.524 283.934 221.732ZM290.462 213.362C290.162 213.362 289.904 213.254 289.688 213.038C289.472 212.81 289.364 212.546 289.364 212.246C289.364 211.946 289.472 211.688 289.688 211.472C289.904 211.244 290.162 211.13 290.462 211.13C290.762 211.13 291.02 211.244 291.236 211.472C291.464 211.688 291.578 211.946 291.578 212.246C291.578 212.546 291.464 212.81 291.236 213.038C291.02 213.254 290.762 213.362 290.462 213.362ZM291.362 214.838V224H289.562V214.838H291.362ZM294.49 221.732V216.35H292.546V214.838H294.49V212.498L296.272 212.066V214.838H298.972V216.35H296.272V221.318C296.272 221.786 296.374 222.116 296.578 222.308C296.794 222.5 297.142 222.596 297.622 222.596C297.874 222.596 298.096 222.584 298.288 222.56C298.492 222.524 298.708 222.464 298.936 222.38V223.892C298.696 223.976 298.414 224.042 298.09 224.09C297.778 224.138 297.49 224.162 297.226 224.162C296.338 224.162 295.66 223.958 295.192 223.55C294.724 223.13 294.49 222.524 294.49 221.732ZM301.018 213.362C300.718 213.362 300.46 213.254 300.244 213.038C300.028 212.81 299.92 212.546 299.92 212.246C299.92 211.946 300.028 211.688 300.244 211.472C300.46 211.244 300.718 211.13 301.018 211.13C301.318 211.13 301.576 211.244 301.792 211.472C302.02 211.688 302.134 211.946 302.134 212.246C302.134 212.546 302.02 212.81 301.792 213.038C301.576 213.254 301.318 213.362 301.018 213.362ZM301.918 214.838V224H300.118V214.838H301.918ZM303.444 219.41C303.444 218.75 303.564 218.132 303.804 217.556C304.056 216.968 304.398 216.464 304.83 216.044C305.262 215.612 305.766 215.276 306.342 215.036C306.93 214.784 307.554 214.658 308.214 214.658C308.874 214.658 309.492 214.784 310.068 215.036C310.656 215.276 311.16 215.612 311.58 216.044C312.012 216.464 312.348 216.968 312.588 217.556C312.84 218.132 312.966 218.75 312.966 219.41C312.966 220.082 312.84 220.712 312.588 221.3C312.348 221.876 312.012 222.38 311.58 222.812C311.16 223.232 310.656 223.568 310.068 223.82C309.492 224.06 308.874 224.18 308.214 224.18C307.554 224.18 306.93 224.06 306.342 223.82C305.766 223.568 305.262 223.232 304.83 222.812C304.398 222.38 304.056 221.876 303.804 221.3C303.564 220.712 303.444 220.082 303.444 219.41ZM308.214 222.596C309.042 222.596 309.744 222.29 310.32 221.678C310.908 221.054 311.202 220.298 311.202 219.41C311.202 218.522 310.908 217.772 310.32 217.16C309.744 216.548 309.042 216.242 308.214 216.242C307.386 216.242 306.678 216.548 306.09 217.16C305.502 217.772 305.208 218.522 305.208 219.41C305.208 220.298 305.496 221.054 306.072 221.678C306.66 222.29 307.374 222.596 308.214 222.596ZM314.489 224V214.838H316.289V215.756C316.649 215.396 317.057 215.126 317.513 214.946C317.981 214.754 318.491 214.658 319.043 214.658C320.087 214.658 320.945 214.994 321.617 215.666C322.289 216.326 322.625 217.184 322.625 218.24V224H320.825V218.546C320.825 217.826 320.615 217.262 320.195 216.854C319.787 216.434 319.241 216.224 318.557 216.224C318.077 216.224 317.639 216.326 317.243 216.53C316.859 216.734 316.541 217.028 316.289 217.412V224H314.489ZM323.657 222.812L324.629 221.624C325.109 221.996 325.595 222.284 326.087 222.488C326.591 222.68 327.101 222.776 327.617 222.776C328.265 222.776 328.793 222.65 329.201 222.398C329.609 222.146 329.813 221.816 329.813 221.408C329.813 221.084 329.693 220.826 329.453 220.634C329.213 220.442 328.841 220.31 328.337 220.238L326.681 220.004C325.781 219.872 325.097 219.596 324.629 219.176C324.173 218.744 323.945 218.174 323.945 217.466C323.945 216.638 324.275 215.972 324.935 215.468C325.595 214.952 326.459 214.694 327.527 214.694C328.199 214.694 328.835 214.79 329.435 214.982C330.047 215.174 330.641 215.468 331.217 215.864L330.299 217.052C329.795 216.716 329.303 216.476 328.823 216.332C328.355 216.176 327.881 216.098 327.401 216.098C326.849 216.098 326.405 216.212 326.069 216.44C325.733 216.668 325.565 216.968 325.565 217.34C325.565 217.676 325.679 217.934 325.907 218.114C326.147 218.282 326.537 218.408 327.077 218.492L328.733 218.726C329.633 218.858 330.317 219.14 330.785 219.572C331.265 220.004 331.505 220.574 331.505 221.282C331.505 221.69 331.403 222.074 331.199 222.434C331.007 222.782 330.737 223.082 330.389 223.334C330.053 223.586 329.651 223.79 329.183 223.946C328.715 224.09 328.211 224.162 327.671 224.162C326.879 224.162 326.135 224.048 325.439 223.82C324.755 223.592 324.161 223.256 323.657 222.812ZM231.436 242.578C231.892 242.578 232.324 242.488 232.732 242.308C233.14 242.116 233.53 241.834 233.902 241.462L234.982 242.632C234.502 243.112 233.95 243.49 233.326 243.766C232.702 244.03 232.048 244.162 231.364 244.162C230.704 244.162 230.086 244.042 229.51 243.802C228.934 243.55 228.436 243.214 228.016 242.794C227.596 242.374 227.26 241.876 227.008 241.3C226.768 240.712 226.648 240.082 226.648 239.41C226.648 238.75 226.768 238.132 227.008 237.556C227.26 236.968 227.596 236.464 228.016 236.044C228.436 235.612 228.934 235.276 229.51 235.036C230.086 234.784 230.704 234.658 231.364 234.658C232.048 234.658 232.714 234.796 233.362 235.072C234.01 235.336 234.574 235.708 235.054 236.188L233.92 237.412C233.572 237.04 233.182 236.758 232.75 236.566C232.318 236.362 231.868 236.26 231.4 236.26C230.572 236.26 229.87 236.566 229.294 237.178C228.718 237.79 228.43 238.534 228.43 239.41C228.43 240.31 228.718 241.066 229.294 241.678C229.882 242.278 230.596 242.578 231.436 242.578ZM238.069 231.004V244H236.269V231.4L238.069 231.004ZM239.595 239.41C239.595 238.75 239.715 238.132 239.955 237.556C240.207 236.968 240.549 236.464 240.981 236.044C241.413 235.612 241.917 235.276 242.493 235.036C243.081 234.784 243.705 234.658 244.365 234.658C245.025 234.658 245.643 234.784 246.219 235.036C246.807 235.276 247.311 235.612 247.731 236.044C248.163 236.464 248.499 236.968 248.739 237.556C248.991 238.132 249.117 238.75 249.117 239.41C249.117 240.082 248.991 240.712 248.739 241.3C248.499 241.876 248.163 242.38 247.731 242.812C247.311 243.232 246.807 243.568 246.219 243.82C245.643 244.06 245.025 244.18 244.365 244.18C243.705 244.18 243.081 244.06 242.493 243.82C241.917 243.568 241.413 243.232 240.981 242.812C240.549 242.38 240.207 241.876 239.955 241.3C239.715 240.712 239.595 240.082 239.595 239.41ZM244.365 242.596C245.193 242.596 245.895 242.29 246.471 241.678C247.059 241.054 247.353 240.298 247.353 239.41C247.353 238.522 247.059 237.772 246.471 237.16C245.895 236.548 245.193 236.242 244.365 236.242C243.537 236.242 242.829 236.548 242.241 237.16C241.653 237.772 241.359 238.522 241.359 239.41C241.359 240.298 241.647 241.054 242.223 241.678C242.811 242.29 243.525 242.596 244.365 242.596ZM249.775 242.812L250.747 241.624C251.227 241.996 251.713 242.284 252.205 242.488C252.709 242.68 253.219 242.776 253.735 242.776C254.383 242.776 254.911 242.65 255.319 242.398C255.727 242.146 255.931 241.816 255.931 241.408C255.931 241.084 255.811 240.826 255.571 240.634C255.331 240.442 254.959 240.31 254.455 240.238L252.799 240.004C251.899 239.872 251.215 239.596 250.747 239.176C250.291 238.744 250.063 238.174 250.063 237.466C250.063 236.638 250.393 235.972 251.053 235.468C251.713 234.952 252.577 234.694 253.645 234.694C254.317 234.694 254.953 234.79 255.553 234.982C256.165 235.174 256.759 235.468 257.335 235.864L256.417 237.052C255.913 236.716 255.421 236.476 254.941 236.332C254.473 236.176 253.999 236.098 253.519 236.098C252.967 236.098 252.523 236.212 252.187 236.44C251.851 236.668 251.683 236.968 251.683 237.34C251.683 237.676 251.797 237.934 252.025 238.114C252.265 238.282 252.655 238.408 253.195 238.492L254.851 238.726C255.751 238.858 256.435 239.14 256.903 239.572C257.383 240.004 257.623 240.574 257.623 241.282C257.623 241.69 257.521 242.074 257.317 242.434C257.125 242.782 256.855 243.082 256.507 243.334C256.171 243.586 255.769 243.79 255.301 243.946C254.833 244.09 254.329 244.162 253.789 244.162C252.997 244.162 252.253 244.048 251.557 243.82C250.873 243.592 250.279 243.256 249.775 242.812ZM266.852 242.956C266.324 243.364 265.772 243.67 265.196 243.874C264.62 244.066 263.99 244.162 263.306 244.162C262.634 244.162 262.004 244.042 261.416 243.802C260.828 243.55 260.318 243.214 259.886 242.794C259.454 242.374 259.112 241.876 258.86 241.3C258.62 240.712 258.5 240.082 258.5 239.41C258.5 238.75 258.62 238.132 258.86 237.556C259.1 236.98 259.424 236.482 259.832 236.062C260.24 235.642 260.726 235.312 261.29 235.072C261.854 234.82 262.454 234.694 263.09 234.694C263.714 234.694 264.296 234.82 264.836 235.072C265.388 235.312 265.856 235.648 266.24 236.08C266.636 236.5 266.948 237.004 267.176 237.592C267.404 238.18 267.518 238.81 267.518 239.482V240.004H260.282C260.402 240.76 260.75 241.39 261.326 241.894C261.902 242.386 262.586 242.632 263.378 242.632C263.822 242.632 264.248 242.56 264.656 242.416C265.064 242.272 265.412 242.074 265.7 241.822L266.852 242.956ZM263.054 236.206C262.37 236.206 261.77 236.434 261.254 236.89C260.75 237.346 260.432 237.934 260.3 238.654H265.736C265.604 237.958 265.286 237.376 264.782 236.908C264.29 236.44 263.714 236.206 263.054 236.206Z" fill="#808080"/>
<path d="M112.172 389V376.4H117.896C119.144 376.4 120.152 376.748 120.92 377.444C121.7 378.128 122.09 379.022 122.09 380.126C122.09 380.954 121.856 381.674 121.388 382.286C120.92 382.886 120.29 383.318 119.498 383.582L122.306 389H120.218L117.608 383.834H114.062V389H112.172ZM117.734 378.056H114.062V382.268H117.734C118.466 382.268 119.054 382.076 119.498 381.692C119.954 381.296 120.182 380.786 120.182 380.162C120.182 379.526 119.954 379.016 119.498 378.632C119.054 378.248 118.466 378.056 117.734 378.056ZM131.034 387.956C130.506 388.364 129.954 388.67 129.378 388.874C128.802 389.066 128.172 389.162 127.488 389.162C126.816 389.162 126.186 389.042 125.598 388.802C125.01 388.55 124.5 388.214 124.068 387.794C123.636 387.374 123.294 386.876 123.042 386.3C122.802 385.712 122.682 385.082 122.682 384.41C122.682 383.75 122.802 383.132 123.042 382.556C123.282 381.98 123.606 381.482 124.014 381.062C124.422 380.642 124.908 380.312 125.472 380.072C126.036 379.82 126.636 379.694 127.272 379.694C127.896 379.694 128.478 379.82 129.018 380.072C129.57 380.312 130.038 380.648 130.422 381.08C130.818 381.5 131.13 382.004 131.358 382.592C131.586 383.18 131.7 383.81 131.7 384.482V385.004H124.464C124.584 385.76 124.932 386.39 125.508 386.894C126.084 387.386 126.768 387.632 127.56 387.632C128.004 387.632 128.43 387.56 128.838 387.416C129.246 387.272 129.594 387.074 129.882 386.822L131.034 387.956ZM127.236 381.206C126.552 381.206 125.952 381.434 125.436 381.89C124.932 382.346 124.614 382.934 124.482 383.654H129.918C129.786 382.958 129.468 382.376 128.964 381.908C128.472 381.44 127.896 381.206 127.236 381.206ZM132.459 387.812L133.431 386.624C133.911 386.996 134.397 387.284 134.889 387.488C135.393 387.68 135.903 387.776 136.419 387.776C137.067 387.776 137.595 387.65 138.003 387.398C138.411 387.146 138.615 386.816 138.615 386.408C138.615 386.084 138.495 385.826 138.255 385.634C138.015 385.442 137.643 385.31 137.139 385.238L135.483 385.004C134.583 384.872 133.899 384.596 133.431 384.176C132.975 383.744 132.747 383.174 132.747 382.466C132.747 381.638 133.077 380.972 133.737 380.468C134.397 379.952 135.261 379.694 136.329 379.694C137.001 379.694 137.637 379.79 138.237 379.982C138.849 380.174 139.443 380.468 140.019 380.864L139.101 382.052C138.597 381.716 138.105 381.476 137.625 381.332C137.157 381.176 136.683 381.098 136.203 381.098C135.651 381.098 135.207 381.212 134.871 381.44C134.535 381.668 134.367 381.968 134.367 382.34C134.367 382.676 134.481 382.934 134.709 383.114C134.949 383.282 135.339 383.408 135.879 383.492L137.535 383.726C138.435 383.858 139.119 384.14 139.587 384.572C140.067 385.004 140.307 385.574 140.307 386.282C140.307 386.69 140.205 387.074 140.001 387.434C139.809 387.782 139.539 388.082 139.191 388.334C138.855 388.586 138.453 388.79 137.985 388.946C137.517 389.09 137.013 389.162 136.473 389.162C135.681 389.162 134.937 389.048 134.241 388.82C133.557 388.592 132.963 388.256 132.459 387.812ZM143.274 379.838V385.274C143.274 385.994 143.478 386.564 143.886 386.984C144.306 387.404 144.858 387.614 145.542 387.614C146.022 387.614 146.454 387.512 146.838 387.308C147.222 387.092 147.54 386.792 147.792 386.408V379.838H149.592V389H147.792V388.082C147.432 388.442 147.018 388.718 146.55 388.91C146.094 389.09 145.59 389.18 145.038 389.18C143.994 389.18 143.136 388.844 142.464 388.172C141.804 387.5 141.474 386.636 141.474 385.58V379.838H143.274ZM153.343 376.004V389H151.543V376.4L153.343 376.004ZM156.471 386.732V381.35H154.527V379.838H156.471V377.498L158.253 377.066V379.838H160.953V381.35H158.253V386.318C158.253 386.786 158.355 387.116 158.559 387.308C158.775 387.5 159.123 387.596 159.603 387.596C159.855 387.596 160.077 387.584 160.269 387.56C160.473 387.524 160.689 387.464 160.917 387.38V388.892C160.677 388.976 160.395 389.042 160.071 389.09C159.759 389.138 159.471 389.162 159.207 389.162C158.319 389.162 157.641 388.958 157.173 388.55C156.705 388.13 156.471 387.524 156.471 386.732ZM161.411 387.812L162.383 386.624C162.863 386.996 163.349 387.284 163.841 387.488C164.345 387.68 164.855 387.776 165.371 387.776C166.019 387.776 166.547 387.65 166.955 387.398C167.363 387.146 167.567 386.816 167.567 386.408C167.567 386.084 167.447 385.826 167.207 385.634C166.967 385.442 166.595 385.31 166.091 385.238L164.435 385.004C163.535 384.872 162.851 384.596 162.383 384.176C161.927 383.744 161.699 383.174 161.699 382.466C161.699 381.638 162.029 380.972 162.689 380.468C163.349 379.952 164.213 379.694 165.281 379.694C165.953 379.694 166.589 379.79 167.189 379.982C167.801 380.174 168.395 380.468 168.971 380.864L168.053 382.052C167.549 381.716 167.057 381.476 166.577 381.332C166.109 381.176 165.635 381.098 165.155 381.098C164.603 381.098 164.159 381.212 163.823 381.44C163.487 381.668 163.319 381.968 163.319 382.34C163.319 382.676 163.433 382.934 163.661 383.114C163.901 383.282 164.291 383.408 164.831 383.492L166.487 383.726C167.387 383.858 168.071 384.14 168.539 384.572C169.019 385.004 169.259 385.574 169.259 386.282C169.259 386.69 169.157 387.074 168.953 387.434C168.761 387.782 168.491 388.082 168.143 388.334C167.807 388.586 167.405 388.79 166.937 388.946C166.469 389.09 165.965 389.162 165.425 389.162C164.633 389.162 163.889 389.048 163.193 388.82C162.509 388.592 161.915 388.256 161.411 387.812ZM176.941 389.162C175.945 389.162 175.135 388.904 174.511 388.388C173.887 387.872 173.575 387.2 173.575 386.372C173.575 385.508 173.905 384.83 174.565 384.338C175.225 383.834 176.131 383.582 177.283 383.582C177.727 383.582 178.159 383.63 178.579 383.726C178.999 383.81 179.401 383.93 179.785 384.086V383.114C179.785 382.466 179.593 381.98 179.209 381.656C178.825 381.332 178.273 381.17 177.553 381.17C177.133 381.17 176.695 381.236 176.239 381.368C175.783 381.488 175.273 381.68 174.709 381.944L174.043 380.594C174.727 380.27 175.375 380.036 175.987 379.892C176.599 379.736 177.205 379.658 177.805 379.658C178.993 379.658 179.911 379.946 180.559 380.522C181.219 381.086 181.549 381.89 181.549 382.934V389H179.785V388.208C179.377 388.532 178.939 388.772 178.471 388.928C178.003 389.084 177.493 389.162 176.941 389.162ZM175.303 386.336C175.303 386.78 175.489 387.14 175.861 387.416C176.245 387.692 176.743 387.83 177.355 387.83C177.835 387.83 178.279 387.758 178.687 387.614C179.095 387.47 179.461 387.254 179.785 386.966V385.382C179.437 385.19 179.071 385.052 178.687 384.968C178.303 384.872 177.883 384.824 177.427 384.824C176.779 384.824 176.263 384.962 175.879 385.238C175.495 385.514 175.303 385.88 175.303 386.336ZM183.444 389V379.838H185.244V380.756C185.604 380.396 186.012 380.126 186.468 379.946C186.936 379.754 187.446 379.658 187.998 379.658C189.042 379.658 189.9 379.994 190.572 380.666C191.244 381.326 191.58 382.184 191.58 383.24V389H189.78V383.546C189.78 382.826 189.57 382.262 189.15 381.854C188.742 381.434 188.196 381.224 187.512 381.224C187.032 381.224 186.594 381.326 186.198 381.53C185.814 381.734 185.496 382.028 185.244 382.412V389H183.444ZM193.476 389V379.838H195.276V380.756C195.636 380.396 196.044 380.126 196.5 379.946C196.968 379.754 197.478 379.658 198.03 379.658C199.074 379.658 199.932 379.994 200.604 380.666C201.276 381.326 201.612 382.184 201.612 383.24V389H199.812V383.546C199.812 382.826 199.602 382.262 199.182 381.854C198.774 381.434 198.228 381.224 197.544 381.224C197.064 381.224 196.626 381.326 196.23 381.53C195.846 381.734 195.528 382.028 195.276 382.412V389H193.476ZM203.095 384.41C203.095 383.75 203.215 383.132 203.455 382.556C203.707 381.968 204.049 381.464 204.481 381.044C204.913 380.612 205.417 380.276 205.993 380.036C206.581 379.784 207.205 379.658 207.865 379.658C208.525 379.658 209.143 379.784 209.719 380.036C210.307 380.276 210.811 380.612 211.231 381.044C211.663 381.464 211.999 381.968 212.239 382.556C212.491 383.132 212.617 383.75 212.617 384.41C212.617 385.082 212.491 385.712 212.239 386.3C211.999 386.876 211.663 387.38 211.231 387.812C210.811 388.232 210.307 388.568 209.719 388.82C209.143 389.06 208.525 389.18 207.865 389.18C207.205 389.18 206.581 389.06 205.993 388.82C205.417 388.568 204.913 388.232 204.481 387.812C204.049 387.38 203.707 386.876 203.455 386.3C203.215 385.712 203.095 385.082 203.095 384.41ZM207.865 387.596C208.693 387.596 209.395 387.29 209.971 386.678C210.559 386.054 210.853 385.298 210.853 384.41C210.853 383.522 210.559 382.772 209.971 382.16C209.395 381.548 208.693 381.242 207.865 381.242C207.037 381.242 206.329 381.548 205.741 382.16C205.153 382.772 204.859 383.522 204.859 384.41C204.859 385.298 205.147 386.054 205.723 386.678C206.311 387.29 207.025 387.596 207.865 387.596ZM215.904 379.838V385.274C215.904 385.994 216.108 386.564 216.516 386.984C216.936 387.404 217.488 387.614 218.172 387.614C218.652 387.614 219.084 387.512 219.468 387.308C219.852 387.092 220.17 386.792 220.422 386.408V379.838H222.222V389H220.422V388.082C220.062 388.442 219.648 388.718 219.18 388.91C218.724 389.09 218.22 389.18 217.668 389.18C216.624 389.18 215.766 388.844 215.094 388.172C214.434 387.5 214.104 386.636 214.104 385.58V379.838H215.904ZM224.173 389V379.838H225.973V380.756C226.333 380.396 226.741 380.126 227.197 379.946C227.665 379.754 228.175 379.658 228.727 379.658C229.771 379.658 230.629 379.994 231.301 380.666C231.973 381.326 232.309 382.184 232.309 383.24V389H230.509V383.546C230.509 382.826 230.299 382.262 229.879 381.854C229.471 381.434 228.925 381.224 228.241 381.224C227.761 381.224 227.323 381.326 226.927 381.53C226.543 381.734 226.225 382.028 225.973 382.412V389H224.173ZM238.58 387.578C239.036 387.578 239.468 387.488 239.876 387.308C240.284 387.116 240.674 386.834 241.046 386.462L242.126 387.632C241.646 388.112 241.094 388.49 240.47 388.766C239.846 389.03 239.192 389.162 238.508 389.162C237.848 389.162 237.23 389.042 236.654 388.802C236.078 388.55 235.58 388.214 235.16 387.794C234.74 387.374 234.404 386.876 234.152 386.3C233.912 385.712 233.792 385.082 233.792 384.41C233.792 383.75 233.912 383.132 234.152 382.556C234.404 381.968 234.74 381.464 235.16 381.044C235.58 380.612 236.078 380.276 236.654 380.036C237.23 379.784 237.848 379.658 238.508 379.658C239.192 379.658 239.858 379.796 240.506 380.072C241.154 380.336 241.718 380.708 242.198 381.188L241.064 382.412C240.716 382.04 240.326 381.758 239.894 381.566C239.462 381.362 239.012 381.26 238.544 381.26C237.716 381.26 237.014 381.566 236.438 382.178C235.862 382.79 235.574 383.534 235.574 384.41C235.574 385.31 235.862 386.066 236.438 386.678C237.026 387.278 237.74 387.578 238.58 387.578ZM250.999 387.956C250.471 388.364 249.919 388.67 249.343 388.874C248.767 389.066 248.137 389.162 247.453 389.162C246.781 389.162 246.151 389.042 245.563 388.802C244.975 388.55 244.465 388.214 244.033 387.794C243.601 387.374 243.259 386.876 243.007 386.3C242.767 385.712 242.647 385.082 242.647 384.41C242.647 383.75 242.767 383.132 243.007 382.556C243.247 381.98 243.571 381.482 243.979 381.062C244.387 380.642 244.873 380.312 245.437 380.072C246.001 379.82 246.601 379.694 247.237 379.694C247.861 379.694 248.443 379.82 248.983 380.072C249.535 380.312 250.003 380.648 250.387 381.08C250.783 381.5 251.095 382.004 251.323 382.592C251.551 383.18 251.665 383.81 251.665 384.482V385.004H244.429C244.549 385.76 244.897 386.39 245.473 386.894C246.049 387.386 246.733 387.632 247.525 387.632C247.969 387.632 248.395 387.56 248.803 387.416C249.211 387.272 249.559 387.074 249.847 386.822L250.999 387.956ZM247.201 381.206C246.517 381.206 245.917 381.434 245.401 381.89C244.897 382.346 244.579 382.934 244.447 383.654H249.883C249.751 382.958 249.433 382.376 248.929 381.908C248.437 381.44 247.861 381.206 247.201 381.206ZM260.254 389V388.136C259.87 388.46 259.438 388.712 258.958 388.892C258.478 389.06 257.974 389.144 257.446 389.144C256.798 389.144 256.192 389.024 255.628 388.784C255.064 388.532 254.572 388.196 254.152 387.776C253.744 387.356 253.42 386.858 253.18 386.282C252.94 385.694 252.82 385.07 252.82 384.41C252.82 383.75 252.94 383.132 253.18 382.556C253.42 381.98 253.744 381.482 254.152 381.062C254.572 380.642 255.07 380.312 255.646 380.072C256.222 379.82 256.834 379.694 257.482 379.694C257.986 379.694 258.472 379.772 258.94 379.928C259.408 380.084 259.84 380.306 260.236 380.594V376.4L262.036 376.004V389H260.254ZM254.584 384.392C254.584 385.292 254.884 386.048 255.484 386.66C256.084 387.272 256.822 387.578 257.698 387.578C258.214 387.578 258.688 387.482 259.12 387.29C259.564 387.098 259.936 386.828 260.236 386.48V382.322C259.936 381.986 259.564 381.722 259.12 381.53C258.676 381.338 258.202 381.242 257.698 381.242C256.822 381.242 256.084 381.542 255.484 382.142C254.884 382.742 254.584 383.492 254.584 384.392Z" fill="#6B6B6B"/>
<circle cx="185" cy="212" r="14" fill="#F3C8C7" stroke="#F0524D" stroke-width="5"/>
<path d="M33.3092 32.2H36.6212L44.9732 43.072V32.2H48.2372V49H45.1652L36.5972 37.768V49H33.3092V32.2ZM50.2538 42.76C50.2538 41.848 50.4218 41 50.7578 40.216C51.1098 39.416 51.5818 38.728 52.1738 38.152C52.7818 37.56 53.4938 37.096 54.3098 36.76C55.1258 36.424 55.9978 36.256 56.9258 36.256C57.8538 36.256 58.7258 36.424 59.5418 36.76C60.3578 37.096 61.0618 37.56 61.6538 38.152C62.2618 38.728 62.7338 39.416 63.0698 40.216C63.4218 41 63.5978 41.848 63.5978 42.76C63.5978 43.672 63.4218 44.528 63.0698 45.328C62.7338 46.112 62.2618 46.792 61.6538 47.368C61.0618 47.944 60.3578 48.4 59.5418 48.736C58.7258 49.072 57.8538 49.24 56.9258 49.24C55.9978 49.24 55.1258 49.072 54.3098 48.736C53.4938 48.4 52.7818 47.944 52.1738 47.368C51.5818 46.792 51.1098 46.112 50.7578 45.328C50.4218 44.528 50.2538 43.672 50.2538 42.76ZM56.9258 46.384C57.8858 46.384 58.7018 46.032 59.3738 45.328C60.0458 44.624 60.3818 43.768 60.3818 42.76C60.3818 41.736 60.0458 40.872 59.3738 40.168C58.7018 39.464 57.8858 39.112 56.9258 39.112C55.9658 39.112 55.1498 39.464 54.4778 40.168C53.8058 40.872 53.4698 41.736 53.4698 42.76C53.4698 43.768 53.8058 44.624 54.4778 45.328C55.1498 46.032 55.9658 46.384 56.9258 46.384ZM68.9901 49L63.6141 36.496H67.1901L70.6221 44.824L74.0301 36.496H77.5341L72.1581 49H68.9901ZM82.7961 49V46.696L89.4201 40.768C90.1721 40.08 90.7081 39.48 91.0281 38.968C91.3481 38.44 91.5081 37.896 91.5081 37.336C91.5081 36.6 91.2201 35.992 90.6441 35.512C90.0681 35.032 89.3481 34.792 88.4841 34.792C87.6841 34.792 86.9321 34.952 86.2281 35.272C85.5401 35.592 84.7881 36.12 83.9721 36.856L82.1241 34.648C83.1001 33.768 84.1321 33.104 85.2201 32.656C86.3081 32.208 87.4281 31.984 88.5801 31.984C89.4761 31.984 90.3001 32.112 91.0521 32.368C91.8201 32.608 92.4681 32.952 92.9961 33.4C93.5401 33.848 93.9561 34.392 94.2441 35.032C94.5481 35.672 94.7001 36.368 94.7001 37.12C94.7001 38.08 94.4601 38.968 93.9801 39.784C93.5001 40.6 92.6681 41.536 91.4841 42.592L87.3801 46.24H94.9161V49H82.7961ZM103.61 49.24C102.506 49.24 101.498 49.032 100.586 48.616C99.6739 48.2 98.8979 47.616 98.2579 46.864C97.6179 46.112 97.1139 45.2 96.7459 44.128C96.3939 43.056 96.2179 41.872 96.2179 40.576C96.2179 39.296 96.3939 38.12 96.7459 37.048C97.1139 35.976 97.6179 35.064 98.2579 34.312C98.9139 33.56 99.6979 32.976 100.61 32.56C101.522 32.144 102.522 31.936 103.61 31.936C104.714 31.936 105.722 32.144 106.634 32.56C107.546 32.976 108.322 33.56 108.962 34.312C109.602 35.064 110.098 35.976 110.45 37.048C110.818 38.12 111.002 39.296 111.002 40.576C111.002 41.872 110.826 43.056 110.474 44.128C110.122 45.2 109.618 46.112 108.962 46.864C108.322 47.616 107.546 48.2 106.634 48.616C105.722 49.032 104.714 49.24 103.61 49.24ZM103.61 46.384C104.906 46.384 105.93 45.864 106.682 44.824C107.434 43.784 107.81 42.368 107.81 40.576C107.81 38.816 107.426 37.416 106.658 36.376C105.906 35.32 104.89 34.792 103.61 34.792C102.33 34.792 101.314 35.32 100.562 36.376C99.8099 37.416 99.4339 38.816 99.4339 40.576C99.4339 42.368 99.8099 43.784 100.562 44.824C101.314 45.864 102.33 46.384 103.61 46.384ZM111.964 49V46.696L118.588 40.768C119.34 40.08 119.876 39.48 120.196 38.968C120.516 38.44 120.676 37.896 120.676 37.336C120.676 36.6 120.388 35.992 119.812 35.512C119.236 35.032 118.516 34.792 117.652 34.792C116.852 34.792 116.1 34.952 115.396 35.272C114.708 35.592 113.956 36.12 113.14 36.856L111.292 34.648C112.268 33.768 113.3 33.104 114.388 32.656C115.476 32.208 116.596 31.984 117.748 31.984C118.644 31.984 119.468 32.112 120.22 32.368C120.988 32.608 121.636 32.952 122.164 33.4C122.708 33.848 123.124 34.392 123.412 35.032C123.716 35.672 123.868 36.368 123.868 37.12C123.868 38.08 123.628 38.968 123.148 39.784C122.668 40.6 121.836 41.536 120.652 42.592L116.548 46.24H124.084V49H111.964ZM132.778 49.24C131.674 49.24 130.666 49.032 129.754 48.616C128.842 48.2 128.066 47.616 127.426 46.864C126.786 46.112 126.282 45.2 125.914 44.128C125.562 43.056 125.386 41.872 125.386 40.576C125.386 39.296 125.562 38.12 125.914 37.048C126.282 35.976 126.786 35.064 127.426 34.312C128.082 33.56 128.866 32.976 129.778 32.56C130.69 32.144 131.69 31.936 132.778 31.936C133.882 31.936 134.89 32.144 135.802 32.56C136.714 32.976 137.49 33.56 138.13 34.312C138.77 35.064 139.266 35.976 139.618 37.048C139.986 38.12 140.17 39.296 140.17 40.576C140.17 41.872 139.994 43.056 139.642 44.128C139.29 45.2 138.786 46.112 138.13 46.864C137.49 47.616 136.714 48.2 135.802 48.616C134.89 49.032 133.882 49.24 132.778 49.24ZM132.778 46.384C134.074 46.384 135.098 45.864 135.85 44.824C136.602 43.784 136.978 42.368 136.978 40.576C136.978 38.816 136.594 37.416 135.826 36.376C135.074 35.32 134.058 34.792 132.778 34.792C131.498 34.792 130.482 35.32 129.73 36.376C128.978 37.416 128.602 38.816 128.602 40.576C128.602 42.368 128.978 43.784 129.73 44.824C130.482 45.864 131.498 46.384 132.778 46.384Z" fill="#3E65A0"/>
<path d="M45.1451 225V208.2H58.1291V211.224H48.6251V215.184H54.9371V218.112H48.6251V225H45.1451ZM69.1159 223.44C68.3479 224.064 67.5559 224.52 66.7399 224.808C65.9399 225.096 65.0439 225.24 64.0519 225.24C63.1079 225.24 62.2199 225.072 61.3879 224.736C60.5719 224.4 59.8599 223.944 59.2519 223.368C58.6599 222.792 58.1879 222.112 57.8359 221.328C57.4999 220.528 57.3319 219.672 57.3319 218.76C57.3319 217.864 57.4919 217.024 57.8119 216.24C58.1479 215.44 58.6039 214.752 59.1799 214.176C59.7559 213.584 60.4359 213.12 61.2199 212.784C62.0199 212.448 62.8679 212.28 63.7639 212.28C64.6439 212.28 65.4599 212.456 66.2119 212.808C66.9799 213.144 67.6359 213.608 68.1799 214.2C68.7399 214.792 69.1719 215.504 69.4759 216.336C69.7959 217.152 69.9559 218.04 69.9559 219V219.864H60.6439C60.8679 220.648 61.2999 221.28 61.9399 221.76C62.5799 222.24 63.3319 222.48 64.1959 222.48C64.7399 222.48 65.2519 222.392 65.7319 222.216C66.2119 222.04 66.6199 221.792 66.9559 221.472L69.1159 223.44ZM63.6919 214.992C62.9399 214.992 62.2919 215.224 61.7479 215.688C61.2039 216.136 60.8279 216.744 60.6199 217.512H66.7399C66.5319 216.776 66.1479 216.176 65.5879 215.712C65.0439 215.232 64.4119 214.992 63.6919 214.992ZM84.8824 218.76C84.8824 219.656 84.7144 220.496 84.3784 221.28C84.0424 222.064 83.5864 222.744 83.0104 223.32C82.4344 223.896 81.7464 224.352 80.9464 224.688C80.1624 225.008 79.3224 225.168 78.4264 225.168C77.8024 225.168 77.1944 225.08 76.6024 224.904C76.0104 224.728 75.4664 224.48 74.9704 224.16V225H71.7304V208.2L75.0184 207.48V213.48C75.5144 213.112 76.0584 212.832 76.6504 212.64C77.2584 212.432 77.8824 212.328 78.5224 212.328C79.4024 212.328 80.2264 212.496 80.9944 212.832C81.7784 213.168 82.4584 213.624 83.0344 214.2C83.6104 214.776 84.0584 215.456 84.3784 216.24C84.7144 217.024 84.8824 217.864 84.8824 218.76ZM77.9944 215.136C77.4024 215.136 76.8504 215.24 76.3384 215.448C75.8264 215.64 75.3864 215.928 75.0184 216.312V221.232C75.3704 221.584 75.8024 221.864 76.3144 222.072C76.8424 222.28 77.4024 222.384 77.9944 222.384C79.0184 222.384 79.8824 222.04 80.5864 221.352C81.2904 220.648 81.6424 219.784 81.6424 218.76C81.6424 217.736 81.2824 216.88 80.5624 216.192C79.8584 215.488 79.0024 215.136 77.9944 215.136ZM90.8586 225V222.696L97.4826 216.768C98.2346 216.08 98.7706 215.48 99.0906 214.968C99.4106 214.44 99.5706 213.896 99.5706 213.336C99.5706 212.6 99.2826 211.992 98.7066 211.512C98.1306 211.032 97.4106 210.792 96.5466 210.792C95.7466 210.792 94.9946 210.952 94.2906 211.272C93.6026 211.592 92.8506 212.12 92.0346 212.856L90.1866 210.648C91.1626 209.768 92.1946 209.104 93.2826 208.656C94.3706 208.208 95.4906 207.984 96.6426 207.984C97.5386 207.984 98.3626 208.112 99.1146 208.368C99.8826 208.608 100.531 208.952 101.059 209.4C101.603 209.848 102.019 210.392 102.307 211.032C102.611 211.672 102.763 212.368 102.763 213.12C102.763 214.08 102.523 214.968 102.043 215.784C101.563 216.6 100.731 217.536 99.5466 218.592L95.4426 222.24H102.979V225H90.8586ZM111.672 225.24C110.568 225.24 109.56 225.032 108.648 224.616C107.736 224.2 106.96 223.616 106.32 222.864C105.68 222.112 105.176 221.2 104.808 220.128C104.456 219.056 104.28 217.872 104.28 216.576C104.28 215.296 104.456 214.12 104.808 213.048C105.176 211.976 105.68 211.064 106.32 210.312C106.976 209.56 107.76 208.976 108.672 208.56C109.584 208.144 110.584 207.936 111.672 207.936C112.776 207.936 113.784 208.144 114.696 208.56C115.608 208.976 116.384 209.56 117.024 210.312C117.664 211.064 118.16 211.976 118.512 213.048C118.88 214.12 119.064 215.296 119.064 216.576C119.064 217.872 118.888 219.056 118.536 220.128C118.184 221.2 117.68 222.112 117.024 222.864C116.384 223.616 115.608 224.2 114.696 224.616C113.784 225.032 112.776 225.24 111.672 225.24ZM111.672 222.384C112.968 222.384 113.992 221.864 114.744 220.824C115.496 219.784 115.872 218.368 115.872 216.576C115.872 214.816 115.488 213.416 114.72 212.376C113.968 211.32 112.952 210.792 111.672 210.792C110.392 210.792 109.376 211.32 108.624 212.376C107.872 213.416 107.496 214.816 107.496 216.576C107.496 218.368 107.872 219.784 108.624 220.824C109.376 221.864 110.392 222.384 111.672 222.384ZM120.027 225V222.696L126.651 216.768C127.403 216.08 127.939 215.48 128.259 214.968C128.579 214.44 128.739 213.896 128.739 213.336C128.739 212.6 128.451 211.992 127.875 211.512C127.299 211.032 126.579 210.792 125.715 210.792C124.915 210.792 124.163 210.952 123.459 211.272C122.771 211.592 122.019 212.12 121.203 212.856L119.355 210.648C120.331 209.768 121.363 209.104 122.451 208.656C123.539 208.208 124.659 207.984 125.811 207.984C126.707 207.984 127.531 208.112 128.283 208.368C129.051 208.608 129.699 208.952 130.227 209.4C130.771 209.848 131.187 210.392 131.475 211.032C131.779 211.672 131.931 212.368 131.931 213.12C131.931 214.08 131.691 214.968 131.211 215.784C130.731 216.6 129.899 217.536 128.715 218.592L124.611 222.24H132.147V225H120.027ZM139.713 208.2V225H136.425V211.536L133.137 212.88V210.024L137.625 208.2H139.713Z" fill="#3E65A0"/>
<path d="M227.278 14.4H232.732C233.956 14.4 234.94 14.706 235.684 15.318C236.44 15.918 236.818 16.722 236.818 17.73C236.818 18.33 236.662 18.87 236.35 19.35C236.038 19.818 235.612 20.184 235.072 20.448C235.756 20.712 236.296 21.102 236.692 21.618C237.1 22.134 237.304 22.734 237.304 23.418C237.304 24.498 236.908 25.368 236.116 26.028C235.324 26.676 234.274 27 232.966 27H227.278V14.4ZM232.624 16.002H229.168V19.746H232.624C233.332 19.746 233.896 19.578 234.316 19.242C234.736 18.906 234.946 18.45 234.946 17.874C234.946 17.298 234.736 16.842 234.316 16.506C233.896 16.17 233.332 16.002 232.624 16.002ZM232.822 25.398C233.602 25.398 234.226 25.212 234.694 24.84C235.162 24.456 235.396 23.952 235.396 23.328C235.396 22.716 235.162 22.218 234.694 21.834C234.226 21.45 233.602 21.258 232.822 21.258H229.168V25.398H232.822ZM238.544 22.41C238.544 21.75 238.664 21.132 238.904 20.556C239.156 19.968 239.498 19.464 239.93 19.044C240.362 18.612 240.866 18.276 241.442 18.036C242.03 17.784 242.654 17.658 243.314 17.658C243.974 17.658 244.592 17.784 245.168 18.036C245.756 18.276 246.26 18.612 246.68 19.044C247.112 19.464 247.448 19.968 247.688 20.556C247.94 21.132 248.066 21.75 248.066 22.41C248.066 23.082 247.94 23.712 247.688 24.3C247.448 24.876 247.112 25.38 246.68 25.812C246.26 26.232 245.756 26.568 245.168 26.82C244.592 27.06 243.974 27.18 243.314 27.18C242.654 27.18 242.03 27.06 241.442 26.82C240.866 26.568 240.362 26.232 239.93 25.812C239.498 25.38 239.156 24.876 238.904 24.3C238.664 23.712 238.544 23.082 238.544 22.41ZM243.314 25.596C244.142 25.596 244.844 25.29 245.42 24.678C246.008 24.054 246.302 23.298 246.302 22.41C246.302 21.522 246.008 20.772 245.42 20.16C244.844 19.548 244.142 19.242 243.314 19.242C242.486 19.242 241.778 19.548 241.19 20.16C240.602 20.772 240.308 21.522 240.308 22.41C240.308 23.298 240.596 24.054 241.172 24.678C241.76 25.29 242.474 25.596 243.314 25.596ZM250.214 24.732V19.35H248.27V17.838H250.214V15.498L251.996 15.066V17.838H254.696V19.35H251.996V24.318C251.996 24.786 252.098 25.116 252.302 25.308C252.518 25.5 252.866 25.596 253.346 25.596C253.598 25.596 253.82 25.584 254.012 25.56C254.216 25.524 254.432 25.464 254.66 25.38V26.892C254.42 26.976 254.138 27.042 253.814 27.09C253.502 27.138 253.214 27.162 252.95 27.162C252.062 27.162 251.384 26.958 250.916 26.55C250.448 26.13 250.214 25.524 250.214 24.732ZM255.842 27V14.4L257.642 14.004V18.756C258.002 18.396 258.41 18.126 258.866 17.946C259.334 17.754 259.844 17.658 260.396 17.658C261.44 17.658 262.298 17.994 262.97 18.666C263.642 19.326 263.978 20.184 263.978 21.24V27H262.178V21.546C262.178 20.826 261.968 20.262 261.548 19.854C261.14 19.434 260.594 19.224 259.91 19.224C259.43 19.224 258.992 19.326 258.596 19.53C258.212 19.734 257.894 20.028 257.642 20.412V27H255.842ZM231.436 45.578C231.892 45.578 232.324 45.488 232.732 45.308C233.14 45.116 233.53 44.834 233.902 44.462L234.982 45.632C234.502 46.112 233.95 46.49 233.326 46.766C232.702 47.03 232.048 47.162 231.364 47.162C230.704 47.162 230.086 47.042 229.51 46.802C228.934 46.55 228.436 46.214 228.016 45.794C227.596 45.374 227.26 44.876 227.008 44.3C226.768 43.712 226.648 43.082 226.648 42.41C226.648 41.75 226.768 41.132 227.008 40.556C227.26 39.968 227.596 39.464 228.016 39.044C228.436 38.612 228.934 38.276 229.51 38.036C230.086 37.784 230.704 37.658 231.364 37.658C232.048 37.658 232.714 37.796 233.362 38.072C234.01 38.336 234.574 38.708 235.054 39.188L233.92 40.412C233.572 40.04 233.182 39.758 232.75 39.566C232.318 39.362 231.868 39.26 231.4 39.26C230.572 39.26 229.87 39.566 229.294 40.178C228.718 40.79 228.43 41.534 228.43 42.41C228.43 43.31 228.718 44.066 229.294 44.678C229.882 45.278 230.596 45.578 231.436 45.578ZM235.503 42.41C235.503 41.75 235.623 41.132 235.863 40.556C236.115 39.968 236.457 39.464 236.889 39.044C237.321 38.612 237.825 38.276 238.401 38.036C238.989 37.784 239.613 37.658 240.273 37.658C240.933 37.658 241.551 37.784 242.127 38.036C242.715 38.276 243.219 38.612 243.639 39.044C244.071 39.464 244.407 39.968 244.647 40.556C244.899 41.132 245.025 41.75 245.025 42.41C245.025 43.082 244.899 43.712 244.647 44.3C244.407 44.876 244.071 45.38 243.639 45.812C243.219 46.232 242.715 46.568 242.127 46.82C241.551 47.06 240.933 47.18 240.273 47.18C239.613 47.18 238.989 47.06 238.401 46.82C237.825 46.568 237.321 46.232 236.889 45.812C236.457 45.38 236.115 44.876 235.863 44.3C235.623 43.712 235.503 43.082 235.503 42.41ZM240.273 45.596C241.101 45.596 241.803 45.29 242.379 44.678C242.967 44.054 243.261 43.298 243.261 42.41C243.261 41.522 242.967 40.772 242.379 40.16C241.803 39.548 241.101 39.242 240.273 39.242C239.445 39.242 238.737 39.548 238.149 40.16C237.561 40.772 237.267 41.522 237.267 42.41C237.267 43.298 237.555 44.054 238.131 44.678C238.719 45.29 239.433 45.596 240.273 45.596ZM246.548 47V37.838H248.348V38.702C248.684 38.366 249.068 38.108 249.5 37.928C249.932 37.748 250.406 37.658 250.922 37.658C251.534 37.658 252.086 37.796 252.578 38.072C253.07 38.336 253.46 38.708 253.748 39.188C254.12 38.684 254.564 38.306 255.08 38.054C255.608 37.79 256.196 37.658 256.844 37.658C257.852 37.658 258.674 37.994 259.31 38.666C259.958 39.326 260.282 40.184 260.282 41.24V47H258.482V41.546C258.482 40.826 258.29 40.262 257.906 39.854C257.534 39.434 257.024 39.224 256.376 39.224C255.932 39.224 255.53 39.326 255.17 39.53C254.81 39.734 254.498 40.04 254.234 40.448C254.258 40.568 254.276 40.7 254.288 40.844C254.3 40.976 254.306 41.108 254.306 41.24V47H252.524V41.546C252.524 40.826 252.332 40.262 251.948 39.854C251.576 39.434 251.066 39.224 250.418 39.224C249.986 39.224 249.596 39.32 249.248 39.512C248.9 39.692 248.6 39.968 248.348 40.34V47H246.548ZM262.17 50.726V37.838H263.952V38.72C264.324 38.384 264.75 38.132 265.23 37.964C265.71 37.784 266.22 37.694 266.76 37.694C267.408 37.694 268.014 37.82 268.578 38.072C269.142 38.312 269.628 38.642 270.036 39.062C270.456 39.482 270.786 39.98 271.026 40.556C271.266 41.132 271.386 41.75 271.386 42.41C271.386 43.07 271.266 43.694 271.026 44.282C270.786 44.858 270.456 45.356 270.036 45.776C269.628 46.196 269.136 46.532 268.56 46.784C267.984 47.024 267.372 47.144 266.724 47.144C266.22 47.144 265.728 47.066 265.248 46.91C264.78 46.754 264.354 46.532 263.97 46.244V50.726H262.17ZM266.526 39.26C266.01 39.26 265.53 39.356 265.086 39.548C264.642 39.74 264.27 40.01 263.97 40.358V44.498C264.258 44.834 264.624 45.098 265.068 45.29C265.524 45.482 266.01 45.578 266.526 45.578C267.402 45.578 268.134 45.278 268.722 44.678C269.322 44.078 269.622 43.328 269.622 42.428C269.622 41.528 269.322 40.778 268.722 40.178C268.122 39.566 267.39 39.26 266.526 39.26ZM280.897 45.956C280.369 46.364 279.817 46.67 279.241 46.874C278.665 47.066 278.035 47.162 277.351 47.162C276.679 47.162 276.049 47.042 275.461 46.802C274.873 46.55 274.363 46.214 273.931 45.794C273.499 45.374 273.157 44.876 272.905 44.3C272.665 43.712 272.545 43.082 272.545 42.41C272.545 41.75 272.665 41.132 272.905 40.556C273.145 39.98 273.469 39.482 273.877 39.062C274.285 38.642 274.771 38.312 275.335 38.072C275.899 37.82 276.499 37.694 277.135 37.694C277.759 37.694 278.341 37.82 278.881 38.072C279.433 38.312 279.901 38.648 280.285 39.08C280.681 39.5 280.993 40.004 281.221 40.592C281.449 41.18 281.563 41.81 281.563 42.482V43.004H274.327C274.447 43.76 274.795 44.39 275.371 44.894C275.947 45.386 276.631 45.632 277.423 45.632C277.867 45.632 278.293 45.56 278.701 45.416C279.109 45.272 279.457 45.074 279.745 44.822L280.897 45.956ZM277.099 39.206C276.415 39.206 275.815 39.434 275.299 39.89C274.795 40.346 274.477 40.934 274.345 41.654H279.781C279.649 40.958 279.331 40.376 278.827 39.908C278.335 39.44 277.759 39.206 277.099 39.206ZM283.934 44.732V39.35H281.99V37.838H283.934V35.498L285.716 35.066V37.838H288.416V39.35H285.716V44.318C285.716 44.786 285.818 45.116 286.022 45.308C286.238 45.5 286.586 45.596 287.066 45.596C287.318 45.596 287.54 45.584 287.732 45.56C287.936 45.524 288.152 45.464 288.38 45.38V46.892C288.14 46.976 287.858 47.042 287.534 47.09C287.222 47.138 286.934 47.162 286.67 47.162C285.782 47.162 285.104 46.958 284.636 46.55C284.168 46.13 283.934 45.524 283.934 44.732ZM290.462 36.362C290.162 36.362 289.904 36.254 289.688 36.038C289.472 35.81 289.364 35.546 289.364 35.246C289.364 34.946 289.472 34.688 289.688 34.472C289.904 34.244 290.162 34.13 290.462 34.13C290.762 34.13 291.02 34.244 291.236 34.472C291.464 34.688 291.578 34.946 291.578 35.246C291.578 35.546 291.464 35.81 291.236 36.038C291.02 36.254 290.762 36.362 290.462 36.362ZM291.362 37.838V47H289.562V37.838H291.362ZM294.49 44.732V39.35H292.546V37.838H294.49V35.498L296.272 35.066V37.838H298.972V39.35H296.272V44.318C296.272 44.786 296.374 45.116 296.578 45.308C296.794 45.5 297.142 45.596 297.622 45.596C297.874 45.596 298.096 45.584 298.288 45.56C298.492 45.524 298.708 45.464 298.936 45.38V46.892C298.696 46.976 298.414 47.042 298.09 47.09C297.778 47.138 297.49 47.162 297.226 47.162C296.338 47.162 295.66 46.958 295.192 46.55C294.724 46.13 294.49 45.524 294.49 44.732ZM301.018 36.362C300.718 36.362 300.46 36.254 300.244 36.038C300.028 35.81 299.92 35.546 299.92 35.246C299.92 34.946 300.028 34.688 300.244 34.472C300.46 34.244 300.718 34.13 301.018 34.13C301.318 34.13 301.576 34.244 301.792 34.472C302.02 34.688 302.134 34.946 302.134 35.246C302.134 35.546 302.02 35.81 301.792 36.038C301.576 36.254 301.318 36.362 301.018 36.362ZM301.918 37.838V47H300.118V37.838H301.918ZM303.444 42.41C303.444 41.75 303.564 41.132 303.804 40.556C304.056 39.968 304.398 39.464 304.83 39.044C305.262 38.612 305.766 38.276 306.342 38.036C306.93 37.784 307.554 37.658 308.214 37.658C308.874 37.658 309.492 37.784 310.068 38.036C310.656 38.276 311.16 38.612 311.58 39.044C312.012 39.464 312.348 39.968 312.588 40.556C312.84 41.132 312.966 41.75 312.966 42.41C312.966 43.082 312.84 43.712 312.588 44.3C312.348 44.876 312.012 45.38 311.58 45.812C311.16 46.232 310.656 46.568 310.068 46.82C309.492 47.06 308.874 47.18 308.214 47.18C307.554 47.18 306.93 47.06 306.342 46.82C305.766 46.568 305.262 46.232 304.83 45.812C304.398 45.38 304.056 44.876 303.804 44.3C303.564 43.712 303.444 43.082 303.444 42.41ZM308.214 45.596C309.042 45.596 309.744 45.29 310.32 44.678C310.908 44.054 311.202 43.298 311.202 42.41C311.202 41.522 310.908 40.772 310.32 40.16C309.744 39.548 309.042 39.242 308.214 39.242C307.386 39.242 306.678 39.548 306.09 40.16C305.502 40.772 305.208 41.522 305.208 42.41C305.208 43.298 305.496 44.054 306.072 44.678C306.66 45.29 307.374 45.596 308.214 45.596ZM314.489 47V37.838H316.289V38.756C316.649 38.396 317.057 38.126 317.513 37.946C317.981 37.754 318.491 37.658 319.043 37.658C320.087 37.658 320.945 37.994 321.617 38.666C322.289 39.326 322.625 40.184 322.625 41.24V47H320.825V41.546C320.825 40.826 320.615 40.262 320.195 39.854C319.787 39.434 319.241 39.224 318.557 39.224C318.077 39.224 317.639 39.326 317.243 39.53C316.859 39.734 316.541 40.028 316.289 40.412V47H314.489ZM323.657 45.812L324.629 44.624C325.109 44.996 325.595 45.284 326.087 45.488C326.591 45.68 327.101 45.776 327.617 45.776C328.265 45.776 328.793 45.65 329.201 45.398C329.609 45.146 329.813 44.816 329.813 44.408C329.813 44.084 329.693 43.826 329.453 43.634C329.213 43.442 328.841 43.31 328.337 43.238L326.681 43.004C325.781 42.872 325.097 42.596 324.629 42.176C324.173 41.744 323.945 41.174 323.945 40.466C323.945 39.638 324.275 38.972 324.935 38.468C325.595 37.952 326.459 37.694 327.527 37.694C328.199 37.694 328.835 37.79 329.435 37.982C330.047 38.174 330.641 38.468 331.217 38.864L330.299 40.052C329.795 39.716 329.303 39.476 328.823 39.332C328.355 39.176 327.881 39.098 327.401 39.098C326.849 39.098 326.405 39.212 326.069 39.44C325.733 39.668 325.565 39.968 325.565 40.34C325.565 40.676 325.679 40.934 325.907 41.114C326.147 41.282 326.537 41.408 327.077 41.492L328.733 41.726C329.633 41.858 330.317 42.14 330.785 42.572C331.265 43.004 331.505 43.574 331.505 44.282C331.505 44.69 331.403 45.074 331.199 45.434C331.007 45.782 330.737 46.082 330.389 46.334C330.053 46.586 329.651 46.79 329.183 46.946C328.715 47.09 328.211 47.162 327.671 47.162C326.879 47.162 326.135 47.048 325.439 46.82C324.755 46.592 324.161 46.256 323.657 45.812ZM228.862 54.004V67H227.062V54.4L228.862 54.004ZM233.7 67.162C232.704 67.162 231.894 66.904 231.27 66.388C230.646 65.872 230.334 65.2 230.334 64.372C230.334 63.508 230.664 62.83 231.324 62.338C231.984 61.834 232.89 61.582 234.042 61.582C234.486 61.582 234.918 61.63 235.338 61.726C235.758 61.81 236.16 61.93 236.544 62.086V61.114C236.544 60.466 236.352 59.98 235.968 59.656C235.584 59.332 235.032 59.17 234.312 59.17C233.892 59.17 233.454 59.236 232.998 59.368C232.542 59.488 232.032 59.68 231.468 59.944L230.802 58.594C231.486 58.27 232.134 58.036 232.746 57.892C233.358 57.736 233.964 57.658 234.564 57.658C235.752 57.658 236.67 57.946 237.318 58.522C237.978 59.086 238.308 59.89 238.308 60.934V67H236.544V66.208C236.136 66.532 235.698 66.772 235.23 66.928C234.762 67.084 234.252 67.162 233.7 67.162ZM232.062 64.336C232.062 64.78 232.248 65.14 232.62 65.416C233.004 65.692 233.502 65.83 234.114 65.83C234.594 65.83 235.038 65.758 235.446 65.614C235.854 65.47 236.22 65.254 236.544 64.966V63.382C236.196 63.19 235.83 63.052 235.446 62.968C235.062 62.872 234.642 62.824 234.186 62.824C233.538 62.824 233.022 62.962 232.638 63.238C232.254 63.514 232.062 63.88 232.062 64.336ZM241.878 57.838V63.274C241.878 63.994 242.082 64.564 242.49 64.984C242.91 65.404 243.462 65.614 244.146 65.614C244.626 65.614 245.058 65.512 245.442 65.308C245.826 65.092 246.144 64.792 246.396 64.408V57.838H248.196V67H246.396V66.082C246.036 66.442 245.622 66.718 245.154 66.91C244.698 67.09 244.194 67.18 243.642 67.18C242.598 67.18 241.74 66.844 241.068 66.172C240.408 65.5 240.078 64.636 240.078 63.58V57.838H241.878ZM250.147 67V57.838H251.947V58.756C252.307 58.396 252.715 58.126 253.171 57.946C253.639 57.754 254.149 57.658 254.701 57.658C255.745 57.658 256.603 57.994 257.275 58.666C257.947 59.326 258.283 60.184 258.283 61.24V67H256.483V61.546C256.483 60.826 256.273 60.262 255.853 59.854C255.445 59.434 254.899 59.224 254.215 59.224C253.735 59.224 253.297 59.326 252.901 59.53C252.517 59.734 252.199 60.028 251.947 60.412V67H250.147ZM264.554 65.578C265.01 65.578 265.442 65.488 265.85 65.308C266.258 65.116 266.648 64.834 267.02 64.462L268.1 65.632C267.62 66.112 267.068 66.49 266.444 66.766C265.82 67.03 265.166 67.162 264.482 67.162C263.822 67.162 263.204 67.042 262.628 66.802C262.052 66.55 261.554 66.214 261.134 65.794C260.714 65.374 260.378 64.876 260.126 64.3C259.886 63.712 259.766 63.082 259.766 62.41C259.766 61.75 259.886 61.132 260.126 60.556C260.378 59.968 260.714 59.464 261.134 59.044C261.554 58.612 262.052 58.276 262.628 58.036C263.204 57.784 263.822 57.658 264.482 57.658C265.166 57.658 265.832 57.796 266.48 58.072C267.128 58.336 267.692 58.708 268.172 59.188L267.038 60.412C266.69 60.04 266.3 59.758 265.868 59.566C265.436 59.362 264.986 59.26 264.518 59.26C263.69 59.26 262.988 59.566 262.412 60.178C261.836 60.79 261.548 61.534 261.548 62.41C261.548 63.31 261.836 64.066 262.412 64.678C263 65.278 263.714 65.578 264.554 65.578ZM269.387 67V54.4L271.187 54.004V58.756C271.547 58.396 271.955 58.126 272.411 57.946C272.879 57.754 273.389 57.658 273.941 57.658C274.985 57.658 275.843 57.994 276.515 58.666C277.187 59.326 277.523 60.184 277.523 61.24V67H275.723V61.546C275.723 60.826 275.513 60.262 275.093 59.854C274.685 59.434 274.139 59.224 273.455 59.224C272.975 59.224 272.537 59.326 272.141 59.53C271.757 59.734 271.439 60.028 271.187 60.412V67H269.387Z" fill="#808080"/>
<circle cx="185" cy="38" r="14" fill="#3D996D" fill-opacity="0.35" stroke="#3D996D" stroke-width="5"/>
<path d="M132.057 364.8L126.537 354.504V366H122.745V349.2H127.953L132.105 357.12L136.257 349.2H141.465V366H137.577V354.552L132.057 364.8ZM147.651 366.216C146.307 366.216 145.203 365.848 144.339 365.112C143.475 364.376 143.043 363.432 143.043 362.28C143.043 361.08 143.499 360.144 144.411 359.472C145.339 358.8 146.627 358.464 148.275 358.464C148.771 358.464 149.259 358.496 149.739 358.56C150.219 358.624 150.691 358.712 151.155 358.824V358.2C151.155 357.56 150.947 357.088 150.531 356.784C150.131 356.464 149.531 356.304 148.731 356.304C148.235 356.304 147.675 356.384 147.051 356.544C146.427 356.704 145.707 356.96 144.891 357.312L143.499 354.456C144.523 353.992 145.523 353.648 146.499 353.424C147.491 353.184 148.467 353.064 149.427 353.064C151.187 353.064 152.555 353.488 153.531 354.336C154.507 355.168 154.995 356.344 154.995 357.864V366H151.155V365.232C150.643 365.584 150.099 365.84 149.523 366C148.963 366.144 148.339 366.216 147.651 366.216ZM146.739 362.208C146.739 362.608 146.915 362.92 147.267 363.144C147.619 363.368 148.107 363.48 148.731 363.48C149.195 363.48 149.627 363.432 150.027 363.336C150.443 363.24 150.819 363.088 151.155 362.88V361.248C150.787 361.152 150.411 361.08 150.027 361.032C149.643 360.984 149.251 360.96 148.851 360.96C148.179 360.96 147.659 361.072 147.291 361.296C146.923 361.504 146.739 361.808 146.739 362.208ZM157.066 366V353.304H160.954V354.576C161.37 354.08 161.858 353.696 162.418 353.424C162.978 353.152 163.602 353.016 164.29 353.016C164.658 353.032 164.954 353.064 165.178 353.112C165.402 353.144 165.594 353.216 165.754 353.328V356.712C165.498 356.6 165.21 356.512 164.89 356.448C164.57 356.368 164.242 356.328 163.906 356.328C163.298 356.328 162.73 356.472 162.202 356.76C161.69 357.048 161.274 357.44 160.954 357.936V366H157.066ZM173.052 362.88C173.58 362.88 174.068 362.768 174.516 362.544C174.964 362.32 175.396 361.976 175.812 361.512L178.116 363.912C177.476 364.648 176.692 365.224 175.764 365.64C174.836 366.04 173.868 366.24 172.86 366.24C171.916 366.24 171.028 366.072 170.196 365.736C169.38 365.4 168.668 364.936 168.06 364.344C167.468 363.752 166.996 363.056 166.644 362.256C166.308 361.456 166.14 360.592 166.14 359.664C166.14 358.736 166.308 357.872 166.644 357.072C166.996 356.256 167.468 355.56 168.06 354.984C168.668 354.392 169.38 353.928 170.196 353.592C171.028 353.24 171.916 353.064 172.86 353.064C173.9 353.064 174.892 353.272 175.836 353.688C176.78 354.104 177.58 354.68 178.236 355.416L175.86 357.888C175.412 357.392 174.956 357.024 174.492 356.784C174.028 356.544 173.516 356.424 172.956 356.424C172.124 356.424 171.42 356.736 170.844 357.36C170.284 357.984 170.004 358.752 170.004 359.664C170.004 360.576 170.292 361.344 170.868 361.968C171.46 362.576 172.188 362.88 173.052 362.88ZM179.414 366V349.2L183.302 348.36V354.168C183.766 353.816 184.286 353.544 184.862 353.352C185.454 353.16 186.07 353.064 186.71 353.064C188.198 353.064 189.414 353.544 190.358 354.504C191.302 355.464 191.774 356.688 191.774 358.176V366H187.886V358.704C187.886 358.016 187.67 357.464 187.238 357.048C186.822 356.616 186.27 356.4 185.582 356.4C185.086 356.4 184.646 356.488 184.262 356.664C183.878 356.84 183.558 357.088 183.302 357.408V366H179.414ZM198.005 366V363.288L204.749 357.432C205.357 356.888 205.797 356.392 206.069 355.944C206.357 355.496 206.501 355.024 206.501 354.528C206.501 353.888 206.245 353.36 205.733 352.944C205.221 352.512 204.573 352.296 203.789 352.296C203.005 352.296 202.269 352.456 201.581 352.776C200.909 353.096 200.165 353.624 199.349 354.36L197.189 351.768C198.197 350.856 199.269 350.168 200.405 349.704C201.557 349.224 202.733 348.984 203.933 348.984C204.877 348.984 205.741 349.112 206.525 349.368C207.309 349.624 207.973 349.984 208.517 350.448C209.077 350.912 209.509 351.472 209.813 352.128C210.133 352.784 210.293 353.504 210.293 354.288C210.293 355.216 210.045 356.096 209.549 356.928C209.069 357.744 208.277 358.632 207.173 359.592L203.477 362.76H210.461V366H198.005ZM219.244 366.24C218.108 366.24 217.068 366.032 216.124 365.616C215.18 365.2 214.38 364.616 213.724 363.864C213.068 363.112 212.556 362.2 212.188 361.128C211.82 360.056 211.636 358.872 211.636 357.576C211.636 356.28 211.82 355.104 212.188 354.048C212.556 352.976 213.068 352.064 213.724 351.312C214.396 350.56 215.196 349.976 216.124 349.56C217.068 349.144 218.108 348.936 219.244 348.936C220.38 348.936 221.412 349.144 222.34 349.56C223.284 349.976 224.084 350.56 224.74 351.312C225.412 352.064 225.932 352.976 226.3 354.048C226.668 355.104 226.852 356.28 226.852 357.576C226.852 358.872 226.668 360.056 226.3 361.128C225.932 362.2 225.42 363.112 224.764 363.864C224.108 364.616 223.308 365.2 222.364 365.616C221.42 366.032 220.38 366.24 219.244 366.24ZM219.244 362.88C220.428 362.88 221.356 362.408 222.028 361.464C222.716 360.52 223.06 359.224 223.06 357.576C223.06 355.96 222.716 354.68 222.028 353.736C221.34 352.776 220.412 352.296 219.244 352.296C218.076 352.296 217.148 352.776 216.46 353.736C215.772 354.68 215.428 355.96 215.428 357.576C215.428 359.224 215.764 360.52 216.436 361.464C217.124 362.408 218.06 362.88 219.244 362.88ZM227.783 366V363.288L234.527 357.432C235.135 356.888 235.575 356.392 235.847 355.944C236.135 355.496 236.279 355.024 236.279 354.528C236.279 353.888 236.023 353.36 235.511 352.944C234.999 352.512 234.351 352.296 233.567 352.296C232.783 352.296 232.047 352.456 231.359 352.776C230.687 353.096 229.943 353.624 229.127 354.36L226.967 351.768C227.975 350.856 229.047 350.168 230.183 349.704C231.335 349.224 232.511 348.984 233.711 348.984C234.655 348.984 235.519 349.112 236.303 349.368C237.087 349.624 237.751 349.984 238.295 350.448C238.855 350.912 239.287 351.472 239.591 352.128C239.911 352.784 240.071 353.504 240.071 354.288C240.071 355.216 239.823 356.096 239.327 356.928C238.847 357.744 238.055 358.632 236.951 359.592L233.255 362.76H240.239V366H227.783ZM248.493 349.2V366H244.605V353.136L241.125 354.528V351.168L246.045 349.2H248.493Z" fill="#F0524D"/>
<circle cx="185" cy="308" r="18" fill="white" stroke="#3E65A0" stroke-width="5"/>
</svg>
