<svg width="406" height="28" viewBox="0 0 406 28" fill="none" xmlns="http://www.w3.org/2000/svg">
<path d="M0.764 21V1.4H4.824V21H0.764ZM7.86091 21V6.412H11.6969V7.56C12.2569 7.09333 12.8729 6.73867 13.5449 6.496C14.2356 6.25333 14.9822 6.132 15.7849 6.132C17.4649 6.132 18.8462 6.67333 19.9289 7.756C21.0116 8.83867 21.5529 10.2293 21.5529 11.928V21H17.7169V12.488C17.7169 11.5733 17.4369 10.836 16.8769 10.276C16.3356 9.716 15.6076 9.436 14.6929 9.436C14.0582 9.436 13.4796 9.56667 12.9569 9.828C12.4529 10.0707 12.0329 10.4253 11.6969 10.892V21H7.86091ZM22.9466 19.264L24.8506 16.716C25.7092 17.276 26.5212 17.696 27.2866 17.976C28.0519 18.2373 28.8172 18.368 29.5826 18.368C30.4412 18.368 31.1226 18.228 31.6266 17.948C32.1492 17.668 32.4106 17.2947 32.4106 16.828C32.4106 16.4547 32.2612 16.156 31.9626 15.932C31.6826 15.708 31.2252 15.5493 30.5906 15.456L27.7906 15.036C26.3532 14.812 25.2519 14.3453 24.4866 13.636C23.7399 12.9267 23.3666 11.984 23.3666 10.808C23.3666 9.408 23.9172 8.288 25.0186 7.448C26.1199 6.608 27.5946 6.188 29.4426 6.188C30.5066 6.188 31.5426 6.34667 32.5506 6.664C33.5586 6.96267 34.5199 7.41067 35.4346 8.008L33.5866 10.472C32.7839 10.0053 32.0186 9.66 31.2906 9.436C30.5626 9.19333 29.8252 9.072 29.0786 9.072C28.3879 9.072 27.8279 9.20267 27.3986 9.464C26.9879 9.72533 26.7826 10.0707 26.7826 10.5C26.7826 10.892 26.9319 11.2 27.2306 11.424C27.5479 11.6293 28.0612 11.7787 28.7706 11.872L31.5706 12.292C32.9892 12.4973 34.0812 12.964 34.8466 13.692C35.6306 14.42 36.0226 15.344 36.0226 16.464C36.0226 17.1547 35.8546 17.7987 35.5186 18.396C35.2012 18.9747 34.7626 19.4787 34.2026 19.908C33.6426 20.3373 32.9706 20.6733 32.1866 20.916C31.4026 21.1587 30.5532 21.28 29.6386 21.28C28.3132 21.28 27.0719 21.112 25.9146 20.776C24.7572 20.4213 23.7679 19.9173 22.9466 19.264ZM41.3765 6.412V14.896C41.3765 15.8293 41.6471 16.576 42.1885 17.136C42.7485 17.696 43.4858 17.976 44.4005 17.976C45.0538 17.976 45.6325 17.8547 46.1365 17.612C46.6591 17.3507 47.0885 16.9867 47.4245 16.52V6.412H51.2605V21H47.4245V19.824C46.8645 20.2907 46.2391 20.6547 45.5485 20.916C44.8578 21.1587 44.1111 21.28 43.3085 21.28C41.6285 21.28 40.2471 20.7387 39.1645 19.656C38.0818 18.5547 37.5405 17.1547 37.5405 15.456V6.412H41.3765ZM53.9701 21V6.412H57.8061V8.008C58.2728 7.37333 58.8328 6.89733 59.4861 6.58C60.1581 6.244 60.8955 6.076 61.6981 6.076C62.0715 6.09467 62.3795 6.132 62.6221 6.188C62.8835 6.22533 63.1075 6.3 63.2941 6.412V9.772C63.0141 9.64133 62.7061 9.548 62.3701 9.492C62.0341 9.41733 61.6888 9.38 61.3341 9.38C60.5875 9.38 59.8968 9.56667 59.2621 9.94C58.6461 10.3133 58.1608 10.8547 57.8061 11.564V21H53.9701ZM69.3023 21.252C67.7343 21.252 66.4556 20.8413 65.4663 20.02C64.477 19.18 63.9823 18.0973 63.9823 16.772C63.9823 15.3907 64.5143 14.308 65.5783 13.524C66.6423 12.74 68.1076 12.348 69.9743 12.348C70.5716 12.348 71.169 12.3947 71.7663 12.488C72.3636 12.5813 72.9516 12.7213 73.5303 12.908V11.872C73.5303 11.032 73.269 10.3973 72.7463 9.968C72.2236 9.53867 71.4583 9.324 70.4503 9.324C69.8343 9.324 69.1623 9.42667 68.4343 9.632C67.725 9.81867 66.913 10.1173 65.9983 10.528L64.5983 7.7C65.737 7.17733 66.8383 6.78533 67.9023 6.524C68.985 6.26267 70.049 6.132 71.0943 6.132C73.0543 6.132 74.5756 6.608 75.6583 7.56C76.7596 8.49333 77.3103 9.81867 77.3103 11.536V21H73.5303V19.992C72.9143 20.4213 72.261 20.7387 71.5703 20.944C70.8983 21.1493 70.1423 21.252 69.3023 21.252ZM67.6503 16.688C67.6503 17.248 67.893 17.696 68.3783 18.032C68.8636 18.3493 69.5076 18.508 70.3103 18.508C70.945 18.508 71.5236 18.4333 72.0463 18.284C72.5876 18.116 73.0823 17.8827 73.5303 17.584V15.4C73.0636 15.2133 72.569 15.0827 72.0463 15.008C71.5423 14.9147 71.0103 14.868 70.4503 14.868C69.573 14.868 68.8823 15.036 68.3783 15.372C67.893 15.6893 67.6503 16.128 67.6503 16.688ZM79.9336 21V6.412H83.7696V7.56C84.3296 7.09333 84.9456 6.73867 85.6176 6.496C86.3082 6.25333 87.0549 6.132 87.8576 6.132C89.5376 6.132 90.9189 6.67333 92.0016 7.756C93.0842 8.83867 93.6256 10.2293 93.6256 11.928V21H89.7896V12.488C89.7896 11.5733 89.5096 10.836 88.9496 10.276C88.4082 9.716 87.6802 9.436 86.7656 9.436C86.1309 9.436 85.5522 9.56667 85.0296 9.828C84.5256 10.0707 84.1056 10.4253 83.7696 10.892V21H79.9336ZM103.391 17.92C104.045 17.92 104.651 17.7893 105.211 17.528C105.79 17.2667 106.341 16.856 106.863 16.296L109.159 18.676C108.413 19.4973 107.517 20.1413 106.471 20.608C105.426 21.056 104.343 21.28 103.223 21.28C102.159 21.28 101.151 21.084 100.199 20.692C99.2659 20.3 98.4539 19.768 97.7632 19.096C97.0912 18.424 96.5592 17.6307 96.1672 16.716C95.7752 15.7827 95.5792 14.784 95.5792 13.72C95.5792 12.656 95.7752 11.6667 96.1672 10.752C96.5592 9.81867 97.0912 9.016 97.7632 8.344C98.4539 7.65333 99.2659 7.112 100.199 6.72C101.151 6.328 102.159 6.132 103.223 6.132C104.381 6.132 105.491 6.36533 106.555 6.832C107.619 7.28 108.525 7.91467 109.271 8.736L106.919 11.228C106.397 10.6493 105.837 10.2107 105.239 9.912C104.642 9.61333 103.998 9.464 103.307 9.464C102.206 9.464 101.273 9.87467 100.507 10.696C99.7606 11.5173 99.3872 12.5253 99.3872 13.72C99.3872 14.9147 99.7699 15.9133 100.535 16.716C101.319 17.5187 102.271 17.92 103.391 17.92ZM123.403 19.18C122.507 19.908 121.583 20.44 120.631 20.776C119.697 21.112 118.652 21.28 117.495 21.28C116.393 21.28 115.357 21.084 114.387 20.692C113.435 20.3 112.604 19.768 111.895 19.096C111.204 18.424 110.653 17.6307 110.243 16.716C109.851 15.7827 109.655 14.784 109.655 13.72C109.655 12.6747 109.841 11.6947 110.215 10.78C110.607 9.84667 111.139 9.044 111.811 8.372C112.483 7.68133 113.276 7.14 114.191 6.748C115.124 6.356 116.113 6.16 117.159 6.16C118.185 6.16 119.137 6.36533 120.015 6.776C120.911 7.168 121.676 7.70933 122.311 8.4C122.964 9.09067 123.468 9.92133 123.823 10.892C124.196 11.844 124.383 12.88 124.383 14V15.008H113.519C113.78 15.9227 114.284 16.66 115.031 17.22C115.777 17.78 116.655 18.06 117.663 18.06C118.297 18.06 118.895 17.9573 119.455 17.752C120.015 17.5467 120.491 17.2573 120.883 16.884L123.403 19.18ZM117.075 9.324C116.197 9.324 115.441 9.59467 114.807 10.136C114.172 10.6587 113.733 11.368 113.491 12.264H120.631C120.388 11.4053 119.94 10.7053 119.287 10.164C118.652 9.604 117.915 9.324 117.075 9.324ZM132.058 21V1.4H141.886C142.838 1.4 143.715 1.55867 144.518 1.876C145.339 2.17467 146.039 2.59467 146.618 3.136C147.196 3.67733 147.644 4.33067 147.962 5.096C148.298 5.84267 148.466 6.664 148.466 7.56C148.466 8.43733 148.298 9.24933 147.962 9.996C147.644 10.724 147.187 11.3587 146.59 11.9C146.011 12.4413 145.32 12.8613 144.518 13.16C143.715 13.4587 142.838 13.608 141.886 13.608H136.118V21H132.058ZM141.438 4.9H136.118V10.248H141.438C142.315 10.248 143.015 10.0053 143.538 9.52C144.079 9.03467 144.35 8.39067 144.35 7.588C144.35 6.78533 144.079 6.14133 143.538 5.656C143.015 5.152 142.315 4.9 141.438 4.9ZM150.584 21V6.412H154.42V8.008C154.887 7.37333 155.447 6.89733 156.1 6.58C156.772 6.244 157.51 6.076 158.312 6.076C158.686 6.09467 158.994 6.132 159.236 6.188C159.498 6.22533 159.722 6.3 159.908 6.412V9.772C159.628 9.64133 159.32 9.548 158.984 9.492C158.648 9.41733 158.303 9.38 157.948 9.38C157.202 9.38 156.511 9.56667 155.876 9.94C155.26 10.3133 154.775 10.8547 154.42 11.564V21H150.584ZM163.611 4.676C163.013 4.676 162.5 4.46133 162.071 4.032C161.641 3.60267 161.427 3.08933 161.427 2.492C161.427 1.89467 161.641 1.38133 162.071 0.951999C162.5 0.522666 163.013 0.307999 163.611 0.307999C164.208 0.307999 164.721 0.522666 165.151 0.951999C165.58 1.38133 165.795 1.89467 165.795 2.492C165.795 3.08933 165.58 3.60267 165.151 4.032C164.721 4.46133 164.208 4.676 163.611 4.676ZM165.543 6.412V21H161.707V6.412H165.543ZM175.403 17.92C176.056 17.92 176.663 17.7893 177.223 17.528C177.801 17.2667 178.352 16.856 178.875 16.296L181.171 18.676C180.424 19.4973 179.528 20.1413 178.483 20.608C177.437 21.056 176.355 21.28 175.235 21.28C174.171 21.28 173.163 21.084 172.211 20.692C171.277 20.3 170.465 19.768 169.775 19.096C169.103 18.424 168.571 17.6307 168.179 16.716C167.787 15.7827 167.591 14.784 167.591 13.72C167.591 12.656 167.787 11.6667 168.179 10.752C168.571 9.81867 169.103 9.016 169.775 8.344C170.465 7.65333 171.277 7.112 172.211 6.72C173.163 6.328 174.171 6.132 175.235 6.132C176.392 6.132 177.503 6.36533 178.567 6.832C179.631 7.28 180.536 7.91467 181.283 8.736L178.931 11.228C178.408 10.6493 177.848 10.2107 177.251 9.912C176.653 9.61333 176.009 9.464 175.319 9.464C174.217 9.464 173.284 9.87467 172.519 10.696C171.772 11.5173 171.399 12.5253 171.399 13.72C171.399 14.9147 171.781 15.9133 172.547 16.716C173.331 17.5187 174.283 17.92 175.403 17.92ZM184.789 4.676C184.192 4.676 183.678 4.46133 183.249 4.032C182.82 3.60267 182.605 3.08933 182.605 2.492C182.605 1.89467 182.82 1.38133 183.249 0.951999C183.678 0.522666 184.192 0.307999 184.789 0.307999C185.386 0.307999 185.9 0.522666 186.329 0.951999C186.758 1.38133 186.973 1.89467 186.973 2.492C186.973 3.08933 186.758 3.60267 186.329 4.032C185.9 4.46133 185.386 4.676 184.789 4.676ZM186.721 6.412V21H182.885V6.412H186.721ZM189.441 21V6.412H193.277V7.56C193.837 7.09333 194.453 6.73867 195.125 6.496C195.816 6.25333 196.562 6.132 197.365 6.132C199.045 6.132 200.426 6.67333 201.509 7.756C202.592 8.83867 203.133 10.2293 203.133 11.928V21H199.297V12.488C199.297 11.5733 199.017 10.836 198.457 10.276C197.916 9.716 197.188 9.436 196.273 9.436C195.638 9.436 195.06 9.56667 194.537 9.828C194.033 10.0707 193.613 10.4253 193.277 10.892V21H189.441ZM212.479 21.084C211.452 21.084 210.481 20.888 209.567 20.496C208.671 20.104 207.887 19.572 207.215 18.9C206.561 18.228 206.039 17.444 205.647 16.548C205.273 15.6333 205.087 14.6533 205.087 13.608C205.087 12.5813 205.283 11.62 205.675 10.724C206.067 9.80933 206.599 9.016 207.271 8.344C207.943 7.672 208.736 7.14933 209.651 6.776C210.565 6.384 211.545 6.188 212.591 6.188C213.319 6.188 214.009 6.29067 214.663 6.496C215.335 6.70133 215.96 6.99067 216.539 7.364V6.412H220.319V21C220.319 22.9227 219.693 24.4067 218.443 25.452C217.211 26.4973 215.428 27.02 213.095 27.02C211.975 27.02 210.892 26.908 209.847 26.684C208.82 26.46 207.877 26.1333 207.019 25.704L208.363 22.708C209.165 23.1 209.949 23.3893 210.715 23.576C211.48 23.7813 212.245 23.884 213.011 23.884C214.149 23.884 215.008 23.632 215.587 23.128C216.184 22.6427 216.483 21.924 216.483 20.972V19.768C215.904 20.1973 215.269 20.524 214.579 20.748C213.907 20.972 213.207 21.084 212.479 21.084ZM208.867 13.608C208.867 14.784 209.268 15.7827 210.071 16.604C210.892 17.4253 211.891 17.836 213.067 17.836C213.757 17.836 214.392 17.724 214.971 17.5C215.549 17.2573 216.053 16.9307 216.483 16.52V10.78C216.072 10.3693 215.568 10.052 214.971 9.828C214.373 9.58533 213.748 9.464 213.095 9.464C211.919 9.464 210.92 9.86533 210.099 10.668C209.277 11.4707 208.867 12.4507 208.867 13.608ZM248.125 11.228C248.125 12.6653 247.873 14.0093 247.369 15.26C246.884 16.492 246.203 17.556 245.325 18.452C244.467 19.3293 243.431 20.0293 242.217 20.552C241.004 21.056 239.697 21.308 238.297 21.308C236.841 21.308 235.479 21.0467 234.209 20.524C232.94 20.0013 231.839 19.292 230.905 18.396C229.991 17.4813 229.263 16.408 228.721 15.176C228.18 13.944 227.909 12.6187 227.909 11.2C227.909 9.78133 228.171 8.456 228.693 7.224C229.235 5.992 229.963 4.928 230.877 4.032C231.811 3.11733 232.912 2.39867 234.181 1.876C235.451 1.35333 236.804 1.092 238.241 1.092C239.865 1.092 241.396 1.41867 242.833 2.072C244.271 2.72533 245.456 3.62133 246.389 4.76L243.561 7.364C242.871 6.54267 242.068 5.91733 241.153 5.488C240.257 5.04 239.287 4.816 238.241 4.816C237.364 4.816 236.543 4.984 235.777 5.32C235.031 5.63733 234.377 6.08533 233.817 6.664C233.276 7.224 232.847 7.896 232.529 8.68C232.231 9.44533 232.081 10.2853 232.081 11.2C232.081 12.1147 232.24 12.964 232.557 13.748C232.875 14.532 233.313 15.2133 233.873 15.792C234.433 16.352 235.096 16.8 235.861 17.136C236.645 17.4533 237.476 17.612 238.353 17.612C239.735 17.612 240.92 17.2293 241.909 16.464C242.917 15.6987 243.543 14.7187 243.785 13.524H237.989V9.996H248.125V11.228ZM254.984 21.252C253.416 21.252 252.137 20.8413 251.148 20.02C250.159 19.18 249.664 18.0973 249.664 16.772C249.664 15.3907 250.196 14.308 251.26 13.524C252.324 12.74 253.789 12.348 255.656 12.348C256.253 12.348 256.851 12.3947 257.448 12.488C258.045 12.5813 258.633 12.7213 259.212 12.908V11.872C259.212 11.032 258.951 10.3973 258.428 9.968C257.905 9.53867 257.14 9.324 256.132 9.324C255.516 9.324 254.844 9.42667 254.116 9.632C253.407 9.81867 252.595 10.1173 251.68 10.528L250.28 7.7C251.419 7.17733 252.52 6.78533 253.584 6.524C254.667 6.26267 255.731 6.132 256.776 6.132C258.736 6.132 260.257 6.608 261.34 7.56C262.441 8.49333 262.992 9.81867 262.992 11.536V21H259.212V19.992C258.596 20.4213 257.943 20.7387 257.252 20.944C256.58 21.1493 255.824 21.252 254.984 21.252ZM253.332 16.688C253.332 17.248 253.575 17.696 254.06 18.032C254.545 18.3493 255.189 18.508 255.992 18.508C256.627 18.508 257.205 18.4333 257.728 18.284C258.269 18.116 258.764 17.8827 259.212 17.584V15.4C258.745 15.2133 258.251 15.0827 257.728 15.008C257.224 14.9147 256.692 14.868 256.132 14.868C255.255 14.868 254.564 15.036 254.06 15.372C253.575 15.6893 253.332 16.128 253.332 16.688ZM265.615 21V6.412H269.451V7.504C269.974 7.056 270.552 6.72 271.187 6.496C271.822 6.25333 272.512 6.132 273.259 6.132C274.192 6.132 275.032 6.328 275.779 6.72C276.544 7.09333 277.17 7.62533 277.655 8.316C278.234 7.60667 278.934 7.06533 279.755 6.692C280.576 6.31867 281.482 6.132 282.471 6.132C284.095 6.132 285.43 6.67333 286.475 7.756C287.52 8.83867 288.043 10.2293 288.043 11.928V21H284.207V12.488C284.207 11.5733 283.955 10.836 283.451 10.276C282.966 9.716 282.303 9.436 281.463 9.436C280.884 9.436 280.352 9.56667 279.867 9.828C279.4 10.0707 278.999 10.4253 278.663 10.892C278.682 11.06 278.7 11.228 278.719 11.396C278.738 11.564 278.747 11.7413 278.747 11.928V21H274.911V12.488C274.911 11.5733 274.659 10.836 274.155 10.276C273.67 9.716 273.007 9.436 272.167 9.436C271.588 9.436 271.075 9.548 270.627 9.772C270.179 9.996 269.787 10.3227 269.451 10.752V21H265.615ZM303.786 19.18C302.89 19.908 301.966 20.44 301.014 20.776C300.081 21.112 299.035 21.28 297.878 21.28C296.777 21.28 295.741 21.084 294.77 20.692C293.818 20.3 292.987 19.768 292.278 19.096C291.587 18.424 291.037 17.6307 290.626 16.716C290.234 15.7827 290.038 14.784 290.038 13.72C290.038 12.6747 290.225 11.6947 290.598 10.78C290.99 9.84667 291.522 9.044 292.194 8.372C292.866 7.68133 293.659 7.14 294.574 6.748C295.507 6.356 296.497 6.16 297.542 6.16C298.569 6.16 299.521 6.36533 300.398 6.776C301.294 7.168 302.059 7.70933 302.694 8.4C303.347 9.09067 303.851 9.92133 304.206 10.892C304.579 11.844 304.766 12.88 304.766 14V15.008H293.902C294.163 15.9227 294.667 16.66 295.414 17.22C296.161 17.78 297.038 18.06 298.046 18.06C298.681 18.06 299.278 17.9573 299.838 17.752C300.398 17.5467 300.874 17.2573 301.266 16.884L303.786 19.18ZM297.458 9.324C296.581 9.324 295.825 9.59467 295.19 10.136C294.555 10.6587 294.117 11.368 293.874 12.264H301.014C300.771 11.4053 300.323 10.7053 299.67 10.164C299.035 9.604 298.298 9.324 297.458 9.324Z" fill="#3E65A0"/>
<path d="M312.049 12.208H321.821V14.056H312.049V12.208ZM328.768 21L336.916 1.4H339.52L347.556 21H345.204L342.74 14.84H333.5L331.008 21H328.768ZM334.256 12.992H341.984L338.148 3.416L334.256 12.992ZM359.354 21V19.516C358.757 20.076 358.066 20.5053 357.282 20.804C356.517 21.084 355.695 21.224 354.818 21.224C353.829 21.224 352.905 21.0373 352.046 20.664C351.187 20.2907 350.441 19.7867 349.806 19.152C349.171 18.4987 348.667 17.724 348.294 16.828C347.939 15.932 347.762 14.98 347.762 13.972C347.762 12.964 347.939 12.0213 348.294 11.144C348.667 10.248 349.171 9.48267 349.806 8.848C350.441 8.19467 351.187 7.68133 352.046 7.308C352.923 6.93467 353.857 6.748 354.846 6.748C355.649 6.748 356.433 6.888 357.198 7.168C357.982 7.42933 358.691 7.82133 359.326 8.344V1.4L361.398 0.924V21H359.354ZM349.806 13.944C349.806 14.7093 349.937 15.428 350.198 16.1C350.478 16.772 350.851 17.3507 351.318 17.836C351.785 18.3213 352.335 18.704 352.97 18.984C353.605 19.264 354.286 19.404 355.014 19.404C355.891 19.404 356.703 19.236 357.45 18.9C358.215 18.5453 358.841 18.06 359.326 17.444V10.5C358.841 9.90267 358.215 9.436 357.45 9.1C356.685 8.74533 355.873 8.568 355.014 8.568C353.558 8.568 352.326 9.08133 351.318 10.108C350.31 11.1347 349.806 12.4133 349.806 13.944ZM364.642 21V6.972H366.714V8.512C367.236 7.91467 367.843 7.46667 368.534 7.168C369.224 6.85067 369.99 6.692 370.83 6.692C371.8 6.692 372.668 6.92533 373.434 7.392C374.218 7.84 374.824 8.456 375.254 9.24C375.832 8.38133 376.523 7.74667 377.326 7.336C378.147 6.90667 379.062 6.692 380.07 6.692C381.582 6.692 382.814 7.196 383.766 8.204C384.736 9.212 385.222 10.5187 385.222 12.124V21H383.178V12.544C383.178 11.312 382.851 10.332 382.198 9.604C381.544 8.876 380.658 8.512 379.538 8.512C378.772 8.512 378.072 8.708 377.438 9.1C376.803 9.492 376.262 10.0613 375.814 10.808C375.851 11.0133 375.879 11.228 375.898 11.452C375.935 11.6573 375.954 11.8813 375.954 12.124V21H373.91V12.544C373.91 11.312 373.583 10.332 372.93 9.604C372.276 8.876 371.399 8.512 370.298 8.512C369.551 8.512 368.87 8.68933 368.254 9.044C367.656 9.38 367.143 9.884 366.714 10.556V21H364.642ZM389.46 4.284C389.087 4.284 388.76 4.144 388.48 3.864C388.2 3.584 388.06 3.25733 388.06 2.884C388.06 2.492 388.2 2.16533 388.48 1.904C388.76 1.624 389.087 1.484 389.46 1.484C389.852 1.484 390.179 1.624 390.44 1.904C390.72 2.16533 390.86 2.492 390.86 2.884C390.86 3.25733 390.72 3.584 390.44 3.864C390.179 4.144 389.852 4.284 389.46 4.284ZM390.496 6.972V21H388.424V6.972H390.496ZM393.749 21V6.972H395.821V8.624C396.363 7.98933 397.007 7.51333 397.753 7.196C398.5 6.86 399.331 6.692 400.245 6.692C401.832 6.692 403.129 7.196 404.137 8.204C405.145 9.212 405.649 10.5187 405.649 12.124V21H403.605V12.544C403.605 11.312 403.251 10.332 402.541 9.604C401.832 8.876 400.88 8.512 399.685 8.512C398.845 8.512 398.089 8.69867 397.417 9.072C396.764 9.44533 396.232 9.97733 395.821 10.668V21H393.749Z" fill="#999999"/>
</svg>
