<svg width="44" height="44" viewBox="0 0 44 44" fill="none" xmlns="http://www.w3.org/2000/svg">
<path d="M28.545 12.1054C28.0551 12.1054 27.5762 11.9462 27.1689 11.6481C26.7616 11.3499 26.4441 10.9262 26.2567 10.4304C26.0692 9.93458 26.0201 9.38902 26.1157 8.86269C26.2113 8.33636 26.4472 7.85289 26.7936 7.47343C27.14 7.09396 27.5813 6.83554 28.0618 6.73085C28.5423 6.62615 29.0403 6.67989 29.4929 6.88525C29.9455 7.09062 30.3323 7.43839 30.6045 7.88459C30.8766 8.3308 31.0219 8.85539 31.0219 9.39203C31.0219 10.1117 30.7609 10.8018 30.2964 11.3106C29.8319 11.8195 29.2019 12.1054 28.545 12.1054Z" fill="#F0524D"/>
<path d="M32.5125 2.60938H22.9974C22.7016 2.60914 22.4177 2.73718 22.2078 2.9655L3.18534 23.7987C2.76893 24.2571 2.53516 24.8775 2.53516 25.5242C2.53516 26.1709 2.76893 26.7913 3.18534 27.2497L12.2415 37.1703C12.6601 37.6265 13.2265 37.8826 13.817 37.8826C14.4075 37.8826 14.9739 37.6265 15.3925 37.1703L34.4096 16.3456C34.618 16.1157 34.7349 15.8047 34.7347 15.4807V5.05137C34.7361 4.73089 34.6797 4.41326 34.5686 4.11677C34.4575 3.82029 34.294 3.5508 34.0874 3.32383C33.8809 3.09686 33.6354 2.91688 33.3651 2.79427C33.0948 2.67165 32.805 2.60882 32.5125 2.60938V2.60938Z" stroke="#F0524D" stroke-width="3.5" stroke-linecap="round" stroke-linejoin="round"/>
<path d="M21.2231 42.146L41.5027 19.9307C41.6035 19.8193 41.6828 19.6868 41.736 19.5412C41.7892 19.3955 41.8151 19.2396 41.8123 19.0828V8.22949" stroke="#F0524D" stroke-width="3.5" stroke-linecap="round" stroke-linejoin="round"/>
</svg>
